EDI_BDC_20160219
TableName	Actflag	Created	Changed	BdcID	SecID	ISIN	BDCAppliedTo	CntrID	Notes
BDC	U	2016/01/23	2016/02/19	1094869	4643722	XS1318011571	M	1	
BDC	U	2016/01/23	2016/02/19	1094870	4643722	XS1318011571	M	8	
BDC	U	2016/01/23	2016/02/19	1094871	4643722	XS1318011571	I	8	
BDC	U	2016/01/23	2016/02/19	1094872	4643722	XS1318011571	I	1	
BDC	I	2016/02/19	2016/02/19	1104304	4699017	XS1358936760	M	8	
BDC	U	2016/02/17	2016/02/19	1103758	4706867	US459200JD44	I	8	
BDC	I	2016/02/19	2016/02/19	1104291	4698933	CA06367XSZ55	M	29	
BDC	I	2016/02/19	2016/02/19	1104292	4698933	CA06367XSZ55	M	68	
BDC	I	2016/02/19	2016/02/19	1104293	4704012	XS1365216594	I	1	
BDC	I	2016/02/19	2016/02/19	1104294	4704012	XS1365216594	M	1	
BDC	I	2016/02/19	2016/02/19	1104295	4704012	XS1365216594	I	10	
BDC	I	2016/02/19	2016/02/19	1104296	4704012	XS1365216594	M	10	
BDC	I	2016/02/19	2016/02/19	1104297	4708096	IT0005137275	I	10	
BDC	I	2016/02/19	2016/02/19	1104298	4708096	IT0005137275	M	10	
BDC	I	2016/02/19	2016/02/19	1104299	3629353	XS0727182833	M	1	
BDC	I	2016/02/19	2016/02/19	1104300	4708097	IT0005137515	I	10	
BDC	I	2016/02/19	2016/02/19	1104301	4708097	IT0005137515	M	10	
BDC	I	2016/02/19	2016/02/19	1104302	4515942	XS0797879060	I	11	
BDC	I	2016/02/19	2016/02/19	1104303	4515942	XS0797879060	M	11	
BDC	I	2016/02/19	2016/02/19	1104305	4708098	IT0005163362	I	10	
BDC	I	2016/02/19	2016/02/19	1104306	4708098	IT0005163362	M	10	
BDC	I	2016/02/19	2016/02/19	1104307	4706439	CA06367XTF82	M	29	
BDC	I	2016/02/19	2016/02/19	1104308	4706439	CA06367XTF82	M	68	
BDC	I	2016/02/19	2016/02/19	1104309	4610316	XS1083228889	M	8	
BDC	I	2016/02/19	2016/02/19	1104310	4422147	XS1144026645	I	8	
BDC	I	2016/02/19	2016/02/19	1104311	4422147	XS1144026645	M	8	
BDC	I	2016/02/19	2016/02/19	1104312	4708124	IT0005163602	I	10	
BDC	I	2016/02/19	2016/02/19	1104313	4708124	IT0005163602	M	10	
BDC	I	2016/02/19	2016/02/19	1104314	4708130	IT0005163776	I	10	
BDC	I	2016/02/19	2016/02/19	1104315	4708130	IT0005163776	M	10	
BDC	I	2016/02/19	2016/02/19	1104316	4695016		M	15	
BDC	I	2016/02/19	2016/02/19	1104317	4504876	XS1193698948	I	1	
BDC	I	2016/02/19	2016/02/19	1104318	4504876	XS1193698948	M	1	
BDC	I	2016/02/19	2016/02/19	1104319	4504876	XS1193698948	I	8	
BDC	I	2016/02/19	2016/02/19	1104320	4504876	XS1193698948	M	8	
BDC	I	2016/02/19	2016/02/19	1104321	4708134	US3130A7DD44	I	8	
BDC	I	2016/02/19	2016/02/19	1104322	4708134	US3130A7DD44	M	8	
BDC	I	2016/02/19	2016/02/19	1104323	4514029	XS1193864979	I	1	
BDC	I	2016/02/19	2016/02/19	1104324	4514029	XS1193864979	M	1	
BDC	I	2016/02/19	2016/02/19	1104325	4514029	XS1193864979	I	8	
BDC	I	2016/02/19	2016/02/19	1104326	4514029	XS1193864979	M	8	
BDC	I	2016/02/19	2016/02/19	1104327	4708137	US3130A7DE27	I	8	
BDC	I	2016/02/19	2016/02/19	1104328	4708137	US3130A7DE27	M	8	
BDC	I	2016/02/19	2016/02/19	1104329	4708139	US3130A7DF91	I	8	
BDC	I	2016/02/19	2016/02/19	1104330	4708139	US3130A7DF91	M	8	
BDC	I	2016/02/19	2016/02/19	1104331	4708142	US3130A7DG74	I	8	
BDC	I	2016/02/19	2016/02/19	1104332	4708142	US3130A7DG74	M	8	
BDC	I	2016/02/19	2016/02/19	1104333	4688245	XS1349996832	M	1	
BDC	I	2016/02/19	2016/02/19	1104334	4688245	XS1349996832	M	42	
BDC	I	2016/02/19	2016/02/19	1104335	4688245	XS1349996832	M	8	
BDC	I	2016/02/19	2016/02/19	1104336	4688245	XS1349996832	M	44	
BDC	I	2016/02/19	2016/02/19	1104337	4701993	XS1279277401	I	1	
BDC	I	2016/02/19	2016/02/19	1104338	4701993	XS1279277401	M	1	
BDC	I	2016/02/19	2016/02/19	1104339	4701993	XS1279277401	I	8	
BDC	I	2016/02/19	2016/02/19	1104340	4701993	XS1279277401	M	8	
BDC	I	2016/02/19	2016/02/19	1104341	4708147	US3130A7DH57	I	8	
BDC	I	2016/02/19	2016/02/19	1104342	4708147	US3130A7DH57	M	8	
BDC	I	2016/02/19	2016/02/19	1104343	4708157	US3130A7DJ14	I	8	
BDC	I	2016/02/19	2016/02/19	1104344	4708157	US3130A7DJ14	M	8	
BDC	I	2016/02/19	2016/02/19	1104345	4708159	US3130A7DK86	I	8	
BDC	I	2016/02/19	2016/02/19	1104346	4708159	US3130A7DK86	M	8	
BDC	I	2016/02/19	2016/02/19	1104347	4691090	XS1352924275	I	10	
BDC	I	2016/02/19	2016/02/19	1104348	4691090	XS1352924275	M	10	
BDC	I	2016/02/19	2016/02/19	1104349	4708161	US3130A7DL69	I	8	
BDC	I	2016/02/19	2016/02/19	1104350	4708161	US3130A7DL69	M	8	
BDC	I	2016/02/19	2016/02/19	1104351	4708169	US3130A7DM43	I	8	
BDC	I	2016/02/19	2016/02/19	1104352	4708169	US3130A7DM43	M	8	
BDC	I	2016/02/19	2016/02/19	1104353	4708171	US3130A7DN26	I	8	
BDC	I	2016/02/19	2016/02/19	1104354	4708171	US3130A7DN26	M	8	
BDC	I	2016/02/19	2016/02/19	1104355	4489154	XS1214275833	M	8	
BDC	I	2016/02/19	2016/02/19	1104356	4706867	US459200JD44	I	1	
BDC	I	2016/02/19	2016/02/19	1104357	4708183	US3130A7DP73	I	8	
BDC	I	2016/02/19	2016/02/19	1104358	4708183	US3130A7DP73	M	8	
BDC	I	2016/02/19	2016/02/19	1104359	4708188	US3130A7DQ56	I	8	
BDC	I	2016/02/19	2016/02/19	1104360	4708188	US3130A7DQ56	M	8	
BDC	I	2016/02/19	2016/02/19	1104361	4708190	US3130A7DR30	I	8	
BDC	I	2016/02/19	2016/02/19	1104362	4708190	US3130A7DR30	M	8	
BDC	I	2016/02/19	2016/02/19	1104363	4708193	US3130A7DS13	I	8	
BDC	I	2016/02/19	2016/02/19	1104364	4708193	US3130A7DS13	M	8	
BDC	I	2016/02/19	2016/02/19	1104365	4635973	XS1266715983	I	8	
BDC	I	2016/02/19	2016/02/19	1104366	4635973	XS1266715983	M	8	
BDC	I	2016/02/19	2016/02/19	1104367	4708196	US3130A7DT95	I	8	
BDC	I	2016/02/19	2016/02/19	1104368	4708196	US3130A7DT95	M	8	
BDC	I	2016/02/19	2016/02/19	1104369	4702741	XS1267247481	M	1	
BDC	I	2016/02/19	2016/02/19	1104370	4702741	XS1267247481	M	8	
BDC	I	2016/02/19	2016/02/19	1104371	4702452	XS1267247564	M	8	
BDC	I	2016/02/19	2016/02/19	1104372	4702452	XS1267247564	M	1	
BDC	I	2016/02/19	2016/02/19	1104373	4638708	IT0005136814	I	10	
BDC	I	2016/02/19	2016/02/19	1104374	4638708	IT0005136814	M	10	
BDC	I	2016/02/19	2016/02/19	1104375	4702453	XS1267247648	M	15	
BDC	I	2016/02/19	2016/02/19	1104376	4702453	XS1267247648	M	8	
BDC	I	2016/02/19	2016/02/19	1104377	4702453	XS1267247648	M	1	
BDC	I	2016/02/19	2016/02/19	1104378	4642362	IT0005142960	I	10	
BDC	I	2016/02/19	2016/02/19	1104379	4642362	IT0005142960	M	10	
BDC	I	2016/02/19	2016/02/19	1104380	4704465	XS1330967529	M	1	
BDC	I	2016/02/19	2016/02/19	1104381	4704465	XS1330967529	M	36	
BDC	I	2016/02/19	2016/02/19	1104382	4702454	XS1267247721	M	1	
BDC	I	2016/02/19	2016/02/19	1104383	4702454	XS1267247721	M	8	
BDC	I	2016/02/19	2016/02/19	1104384	4702454	XS1267247721	M	15	
BDC	I	2016/02/19	2016/02/19	1104385	4708212	XS1369278251	I	8	
BDC	I	2016/02/19	2016/02/19	1104386	4708212	XS1369278251	M	8	
BDC	I	2016/02/19	2016/02/19	1104387	4708212	XS1369278251	I	1	
BDC	I	2016/02/19	2016/02/19	1104388	4708212	XS1369278251	M	1	
BDC	I	2016/02/19	2016/02/19	1104389	4708212	XS1369278251	I	10	
BDC	I	2016/02/19	2016/02/19	1104390	4708212	XS1369278251	M	10	
BDC	I	2016/02/19	2016/02/19	1104391	4537793	XS1247538728	I	9	
BDC	I	2016/02/19	2016/02/19	1104392	4537793	XS1247538728	M	9	
BDC	I	2016/02/19	2016/02/19	1104393	4537793	XS1247538728	I	8	
BDC	I	2016/02/19	2016/02/19	1104394	4537793	XS1247538728	M	8	
BDC	I	2016/02/19	2016/02/19	1104395	4537793	XS1247538728	I	1	
BDC	I	2016/02/19	2016/02/19	1104396	4537793	XS1247538728	M	1	
BDC	I	2016/02/19	2016/02/19	1104397	4697739	XS1273425477	M	1	
BDC	I	2016/02/19	2016/02/19	1104398	4697739	XS1273425477	M	8	
BDC	I	2016/02/19	2016/02/19	1104399	4697741	XS1273427929	M	1	
BDC	I	2016/02/19	2016/02/19	1104400	4697741	XS1273427929	M	8	
BDC	I	2016/02/19	2016/02/19	1104401	4697741	XS1273427929	M	7	
BDC	I	2016/02/19	2016/02/19	1104402	4708217	AU2CLT030660	M	12	
BDC	I	2016/02/19	2016/02/19	1104403	4707341	US285512AC38	I	8	
BDC	I	2016/02/19	2016/02/19	1104404	4707341	US285512AC38	M	8	
BDC	I	2016/02/19	2016/02/19	1104405	4708218	XS1369278764	I	1	
BDC	I	2016/02/19	2016/02/19	1104406	4708218	XS1369278764	M	1	
BDC	I	2016/02/19	2016/02/19	1104407	4708218	XS1369278764	I	8	
BDC	I	2016/02/19	2016/02/19	1104408	4708218	XS1369278764	M	8	
BDC	I	2016/02/19	2016/02/19	1104409	4708218	XS1369278764	I	10	
BDC	I	2016/02/19	2016/02/19	1104410	4708218	XS1369278764	M	10	
BDC	I	2016/02/19	2016/02/19	1104411	4699955	XS1273429388	I	8	
BDC	I	2016/02/19	2016/02/19	1104412	4699955	XS1273429388	M	8	
BDC	I	2016/02/19	2016/02/19	1104413	4699955	XS1273429388	I	1	
BDC	I	2016/02/19	2016/02/19	1104414	4699955	XS1273429388	M	1	
BDC	I	2016/02/19	2016/02/19	1104415	4696739	XS1273518057	M	8	
BDC	I	2016/02/19	2016/02/19	1104416	4696739	XS1273518057	M	1	
BDC	I	2016/02/19	2016/02/19	1104417	4695598	XS1261166836	I	1	
BDC	I	2016/02/19	2016/02/19	1104418	4695598	XS1261166836	M	1	
BDC	I	2016/02/19	2016/02/19	1104419	4694593	XS1273421641	I	11	
BDC	I	2016/02/19	2016/02/19	1104420	4694593	XS1273421641	M	11	
BDC	I	2016/02/19	2016/02/19	1104421	4697733	XS1273424157	M	1	
BDC	I	2016/02/19	2016/02/19	1104422	4697733	XS1273424157	M	8	
BDC	I	2016/02/19	2016/02/19	1104423	4708223	US02665WBB63	I	8	
BDC	I	2016/02/19	2016/02/19	1104424	4708223	US02665WBB63	M	8	
BDC	I	2016/02/19	2016/02/19	1104425	4708223	US02665WBB63	I	1	
BDC	I	2016/02/19	2016/02/19	1104426	4708223	US02665WBB63	M	1	
BDC	I	2016/02/19	2016/02/19	1104427	4658445	XS1273523644	I	8	
BDC	I	2016/02/19	2016/02/19	1104428	4658445	XS1273523644	M	8	
BDC	I	2016/02/19	2016/02/19	1104429	4658445	XS1273523644	I	1	
BDC	I	2016/02/19	2016/02/19	1104430	4658445	XS1273523644	M	1	
BDC	I	2016/02/19	2016/02/19	1104431	4680820	XS1279275298	I	1	
BDC	I	2016/02/19	2016/02/19	1104432	4680820	XS1279275298	M	1	
BDC	I	2016/02/19	2016/02/19	1104433	4680820	XS1279275298	I	8	
BDC	I	2016/02/19	2016/02/19	1104434	4680820	XS1279275298	M	8	
BDC	I	2016/02/19	2016/02/19	1104435	4680820	XS1279275298	I	7	
BDC	I	2016/02/19	2016/02/19	1104436	4680820	XS1279275298	M	7	
BDC	I	2016/02/19	2016/02/19	1104437	4680820	XS1279275298	I	70	
BDC	I	2016/02/19	2016/02/19	1104438	4680820	XS1279275298	M	70	
BDC	I	2016/02/19	2016/02/19	1104439	4701071	XS1276927347	M	8	
BDC	I	2016/02/19	2016/02/19	1104440	4701071	XS1276927347	M	17	
BDC	I	2016/02/19	2016/02/19	1104441	4589258	XS1280430122	I	8	
BDC	I	2016/02/19	2016/02/19	1104442	4589258	XS1280430122	M	8	
BDC	I	2016/02/19	2016/02/19	1104443	4589258	XS1280430122	I	1	
BDC	I	2016/02/19	2016/02/19	1104444	4589258	XS1280430122	M	1	
BDC	I	2016/02/19	2016/02/19	1104445	4707431	US55342UAF12	I	8	
BDC	I	2016/02/19	2016/02/19	1104446	4707431	US55342UAF12	M	8	
BDC	I	2016/02/19	2016/02/19	1104447	4683840	XS1280740157	M	8	
BDC	I	2016/02/19	2016/02/19	1104448	4590152	XS1280956324	I	1	
BDC	I	2016/02/19	2016/02/19	1104449	4590152	XS1280956324	M	1	
BDC	I	2016/02/19	2016/02/19	1104450	4590152	XS1280956324	I	8	
BDC	I	2016/02/19	2016/02/19	1104451	4590152	XS1280956324	M	8	
BDC	I	2016/02/19	2016/02/19	1104452	4695567	XS1281080173	M	8	
BDC	I	2016/02/19	2016/02/19	1104453	4678211	XS1289911403	I	33	
BDC	I	2016/02/19	2016/02/19	1104454	4678211	XS1289911403	M	33	
BDC	I	2016/02/19	2016/02/19	1104455	4664053	XS1289960954	I	2	
BDC	I	2016/02/19	2016/02/19	1104456	4664053	XS1289960954	M	2	
BDC	I	2016/02/19	2016/02/19	1104457	4708241	IT0005162398	I	10	
BDC	I	2016/02/19	2016/02/19	1104458	4708241	IT0005162398	M	10	
BDC	I	2016/02/19	2016/02/19	1104459	4693669	XS1290013306	I	11	
BDC	I	2016/02/19	2016/02/19	1104460	4693669	XS1290013306	M	11	
BDC	I	2016/02/19	2016/02/19	1104461	4693669	XS1290013306	I	8	
BDC	I	2016/02/19	2016/02/19	1104462	4693669	XS1290013306	M	8	
BDC	I	2016/02/19	2016/02/19	1104463	4693669	XS1290013306	I	17	
BDC	I	2016/02/19	2016/02/19	1104464	4693669	XS1290013306	M	17	
BDC	I	2016/02/19	2016/02/19	1104465	4708235	US02665WBA80	I	8	
BDC	I	2016/02/19	2016/02/19	1104466	4708235	US02665WBA80	M	8	
BDC	I	2016/02/19	2016/02/19	1104467	4708235	US02665WBA80	I	1	
BDC	I	2016/02/19	2016/02/19	1104468	4708235	US02665WBA80	M	1	
BDC	I	2016/02/19	2016/02/19	1104469	4686672	XS1289626621	I	8	
BDC	I	2016/02/19	2016/02/19	1104470	4686672	XS1289626621	M	8	
BDC	I	2016/02/19	2016/02/19	1104471	4695685	XS1292844989	I	8	
BDC	I	2016/02/19	2016/02/19	1104472	4695685	XS1292844989	M	8	
BDC	I	2016/02/19	2016/02/19	1104473	4698455	XS1292850366	I	7	
BDC	I	2016/02/19	2016/02/19	1104474	4698455	XS1292850366	M	7	
BDC	I	2016/02/19	2016/02/19	1104475	4698455	XS1292850366	I	8	
BDC	I	2016/02/19	2016/02/19	1104476	4698455	XS1292850366	M	8	
BDC	I	2016/02/19	2016/02/19	1104477	4616959	XS1301802994	I	35	
BDC	I	2016/02/19	2016/02/19	1104478	4616959	XS1301802994	M	35	
BDC	I	2016/02/19	2016/02/19	1104479	4696830	XS1292849277	I	1	
BDC	I	2016/02/19	2016/02/19	1104480	4696830	XS1292849277	M	1	
BDC	I	2016/02/19	2016/02/19	1104481	4696830	XS1292849277	I	8	
BDC	I	2016/02/19	2016/02/19	1104482	4696830	XS1292849277	M	8	
BDC	I	2016/02/19	2016/02/19	1104483	4707383	XS1365136644	I	8	
BDC	I	2016/02/19	2016/02/19	1104484	4707383	XS1365136644	M	8	
BDC	I	2016/02/19	2016/02/19	1104485	4707383	XS1365136644	I	1	
BDC	I	2016/02/19	2016/02/19	1104486	4707383	XS1365136644	M	1	
BDC	I	2016/02/19	2016/02/19	1104487	4707383	XS1365136644	I	7	
BDC	I	2016/02/19	2016/02/19	1104488	4707383	XS1365136644	M	7	
BDC	I	2016/02/19	2016/02/19	1104489	4702670	XS1308291803	I	8	
BDC	I	2016/02/19	2016/02/19	1104490	4702670	XS1308291803	M	8	
BDC	I	2016/02/19	2016/02/19	1104491	4702670	XS1308291803	I	1	
BDC	I	2016/02/19	2016/02/19	1104492	4702670	XS1308291803	M	1	
BDC	I	2016/02/19	2016/02/19	1104493	4703722	AU3CB0235612	I	12	
BDC	I	2016/02/19	2016/02/19	1104494	4703722	AU3CB0235612	M	12	
BDC	I	2016/02/19	2016/02/19	1104495	4700132	XS1317168349	I	8	
BDC	I	2016/02/19	2016/02/19	1104496	4700132	XS1317168349	M	8	
BDC	I	2016/02/19	2016/02/19	1104497	4702095	XS1317169073	I	8	
BDC	I	2016/02/19	2016/02/19	1104498	4702095	XS1317169073	M	8	
BDC	I	2016/02/19	2016/02/19	1104499	4700928	XS1317167457	M	8	
BDC	I	2016/02/19	2016/02/19	1104500	4700928	XS1317167457	M	15	
BDC	I	2016/02/19	2016/02/19	1104501	4700928	XS1317167457	M	1	
BDC	I	2016/02/19	2016/02/19	1104502	4700928	XS1317167457	M	9	
BDC	I	2016/02/19	2016/02/19	1104503	4700928	XS1317167457	M	3	
BDC	I	2016/02/19	2016/02/19	1104504	4700928	XS1317167457	M	25	
BDC	I	2016/02/19	2016/02/19	1104505	4700928	XS1317167457	M	35	
BDC	I	2016/02/19	2016/02/19	1104506	4700928	XS1317167457	M	2	
BDC	I	2016/02/19	2016/02/19	1104507	4699359	XS1330961241	M	1	
BDC	I	2016/02/19	2016/02/19	1104508	4696875	XS1334069728	I	15	
BDC	I	2016/02/19	2016/02/19	1104509	4696875	XS1334069728	M	15	
BDC	I	2016/02/19	2016/02/19	1104510	4696875	XS1334069728	I	8	
BDC	I	2016/02/19	2016/02/19	1104511	4696875	XS1334069728	M	8	
BDC	I	2016/02/19	2016/02/19	1104512	4698498	XS1334074058	I	8	
BDC	I	2016/02/19	2016/02/19	1104513	4698498	XS1334074058	M	8	
BDC	I	2016/02/19	2016/02/19	1104514	4698498	XS1334074058	I	15	
BDC	I	2016/02/19	2016/02/19	1104515	4698498	XS1334074058	M	15	
BDC	I	2016/02/19	2016/02/19	1104516	4698505	XS1334504591	I	15	
BDC	I	2016/02/19	2016/02/19	1104517	4698505	XS1334504591	M	15	
BDC	I	2016/02/19	2016/02/19	1104518	4699806	XS1334505994	I	8	
BDC	I	2016/02/19	2016/02/19	1104519	4699806	XS1334505994	M	8	
BDC	I	2016/02/19	2016/02/19	1104520	4701602	XS1334511885	I	8	
BDC	I	2016/02/19	2016/02/19	1104521	4701602	XS1334511885	M	8	
BDC	I	2016/02/19	2016/02/19	1104522	4701602	XS1334511885	I	44	
BDC	I	2016/02/19	2016/02/19	1104523	4701602	XS1334511885	M	44	
BDC	I	2016/02/19	2016/02/19	1104524	4702113	XS1334514046	I	8	
BDC	I	2016/02/19	2016/02/19	1104525	4702113	XS1334514046	M	8	
BDC	I	2016/02/19	2016/02/19	1104526	4702113	XS1334514046	I	12	
BDC	I	2016/02/19	2016/02/19	1104527	4702113	XS1334514046	M	12	
BDC	I	2016/02/19	2016/02/19	1104528	4707349	US285512AD11	I	8	
BDC	I	2016/02/19	2016/02/19	1104529	4707349	US285512AD11	M	8	
BDC	I	2016/02/19	2016/02/19	1104530	4683435	XS1313394964	M	10	
BDC	U	2012/10/22	2016/02/19	619131	3919745	XS0848938543	I	1	
BDC	U	2012/10/22	2016/02/19	619132	3919745	XS0848938543	M	1	
BDC	U	2014/11/03	2016/02/19	915451	4371799	XS1130088658	I	1	
BDC	I	2016/02/19	2016/02/19	1104531	4700640	XS1361557256	M	8	
BDC	I	2016/02/19	2016/02/19	1104532	4700640	XS1361557256	M	1	
BDC	I	2016/02/19	2016/02/19	1104533	4702503	XS1273416211	I	8	
BDC	I	2016/02/19	2016/02/19	1104534	4702503	XS1273416211	M	8	
BDC	I	2016/02/19	2016/02/19	1104535	4702503	XS1273416211	I	1	
BDC	I	2016/02/19	2016/02/19	1104536	4702503	XS1273416211	M	1	
BDC	I	2016/02/19	2016/02/19	1104537	4708387	IT0005144958	I	10	
BDC	I	2016/02/19	2016/02/19	1104538	4708387	IT0005144958	M	10	
BDC	I	2016/02/19	2016/02/19	1104539	4702130	XS1338480020	I	8	
BDC	I	2016/02/19	2016/02/19	1104540	4702130	XS1338480020	M	8	
BDC	I	2016/02/19	2016/02/19	1104541	4705117	XS1289442144	I	8	
BDC	I	2016/02/19	2016/02/19	1104542	4705117	XS1289442144	M	8	
BDC	I	2016/02/19	2016/02/19	1104543	4705117	XS1289442144	I	11	
BDC	I	2016/02/19	2016/02/19	1104544	4705117	XS1289442144	M	11	
BDC	I	2016/02/19	2016/02/19	1104545	4698440	XS1290040291	I	8	
BDC	I	2016/02/19	2016/02/19	1104546	4698440	XS1290040291	M	8	
BDC	I	2016/02/19	2016/02/19	1104547	4670511	XS0337082464	I	1	
BDC	I	2016/02/19	2016/02/19	1104548	4670511	XS0337082464	M	1	
BDC	I	2016/02/19	2016/02/19	1104549	4670511	XS0337082464	I	11	
BDC	I	2016/02/19	2016/02/19	1104550	4670511	XS0337082464	M	11	
BDC	I	2016/02/19	2016/02/19	1104551	3919745	XS0848938543	I	7	
BDC	I	2016/02/19	2016/02/19	1104552	3919745	XS0848938543	M	7	
BDC	I	2016/02/19	2016/02/19	1104553	3919745	XS0848938543	I	8	
BDC	I	2016/02/19	2016/02/19	1104554	3919745	XS0848938543	M	8	
BDC	I	2016/02/19	2016/02/19	1104555	3919745	XS0848938543	I	74	
BDC	I	2016/02/19	2016/02/19	1104556	3919745	XS0848938543	M	74	
BDC	I	2016/02/19	2016/02/19	1104557	4658089	XS1331664679	I	32	
BDC	I	2016/02/19	2016/02/19	1104558	4658089	XS1331664679	M	32	
BDC	I	2016/02/19	2016/02/19	1104559	4695964	XS1356745676	I	9	
BDC	I	2016/02/19	2016/02/19	1104560	4695964	XS1356745676	M	9	
BDC	I	2016/02/19	2016/02/19	1104561	4695964	XS1356745676	I	8	
BDC	I	2016/02/19	2016/02/19	1104562	4695964	XS1356745676	M	8	
BDC	I	2016/02/19	2016/02/19	1104563	4699402	XS1360553132	M	29	
BDC	I	2016/02/19	2016/02/19	1104564	4699402	XS1360553132	M	8	
BDC	I	2016/02/19	2016/02/19	1104565	4699402	XS1360553132	M	45	
BDC	I	2016/02/19	2016/02/19	1104566	4699402	XS1360553132	M	1	
BDC	I	2016/02/19	2016/02/19	1104567	4664792	XS1334257133	I	15	
BDC	I	2016/02/19	2016/02/19	1104568	4664792	XS1334257133	M	15	
BDC	I	2016/02/19	2016/02/19	1104569	4135776	XS0989390678	I	7	
BDC	I	2016/02/19	2016/02/19	1104570	4135776	XS0989390678	M	7	
BDC	I	2016/02/19	2016/02/19	1104571	4135776	XS0989390678	I	1	
BDC	I	2016/02/19	2016/02/19	1104572	4135776	XS0989390678	M	1	
BDC	I	2016/02/19	2016/02/19	1104573	4135776	XS0989390678	I	59	
BDC	I	2016/02/19	2016/02/19	1104574	4135776	XS0989390678	M	59	
BDC	I	2016/02/19	2016/02/19	1104575	4700165	XS1361178822	M	8	
BDC	D	2016/02/09	2016/02/19	1100521	4702263	XS1362986660	I	1	
BDC	I	2016/02/19	2016/02/19	1104576	4700162	XS1361179630	M	8	
BDC	I	2016/02/19	2016/02/19	1104577	4706662	XS1369254666	I	1	
BDC	I	2016/02/19	2016/02/19	1104578	4706662	XS1369254666	M	1	
BDC	I	2016/02/19	2016/02/19	1104579	4700561	XS1361778340	I	15	
BDC	I	2016/02/19	2016/02/19	1104580	4700561	XS1361778340	M	15	
BDC	I	2016/02/19	2016/02/19	1104581	4700561	XS1361778340	I	29	
BDC	I	2016/02/19	2016/02/19	1104582	4700561	XS1361778340	M	29	
BDC	I	2016/02/19	2016/02/19	1104583	4700561	XS1361778340	I	8	
BDC	I	2016/02/19	2016/02/19	1104584	4700561	XS1361778340	M	8	
BDC	I	2016/02/19	2016/02/19	1104585	4700561	XS1361778340	I	1	
BDC	I	2016/02/19	2016/02/19	1104586	4700561	XS1361778340	M	1	
BDC	I	2016/02/19	2016/02/19	1104587	4701669	XS1362324797	M	8	
BDC	I	2016/02/19	2016/02/19	1104588	4701669	XS1362324797	M	55	
BDC	I	2016/02/19	2016/02/19	1104589	4469305	XS1207143410	I	8	
BDC	I	2016/02/19	2016/02/19	1104590	4469305	XS1207143410	M	8	
BDC	I	2016/02/19	2016/02/19	1104591	4700790	US00404AAL35	I	8	
BDC	I	2016/02/19	2016/02/19	1104592	4700790	US00404AAL35	M	8	
BDC	I	2016/02/19	2016/02/19	1104593	4700794	USU00434AF44	I	8	
BDC	I	2016/02/19	2016/02/19	1104594	4700794	USU00434AF44	M	8	
BDC	I	2016/02/19	2016/02/19	1104595	4698883	XS1348808566	M	8	
BDC	I	2016/02/19	2016/02/19	1104596	4698883	XS1348808566	M	1	
BDC	I	2016/02/19	2016/02/19	1104597	4698883	XS1348808566	M	42	
BDC	I	2016/02/19	2016/02/19	1104598	4699174	XS1289132463	I	1	
BDC	I	2016/02/19	2016/02/19	1104599	4699174	XS1289132463	M	1	
BDC	I	2016/02/19	2016/02/19	1104600	4699174	XS1289132463	I	36	
BDC	I	2016/02/19	2016/02/19	1104601	4699174	XS1289132463	M	36	
BDC	I	2016/02/19	2016/02/19	1104602	4691884	XS1290014379	I	22	
BDC	I	2016/02/19	2016/02/19	1104603	4691884	XS1290014379	M	22	
BDC	I	2016/02/19	2016/02/19	1104604	4691884	XS1290014379	I	33	
BDC	I	2016/02/19	2016/02/19	1104605	4691884	XS1290014379	M	33	
BDC	I	2016/02/19	2016/02/19	1104606	4696836	XS1292849434	I	8	
BDC	I	2016/02/19	2016/02/19	1104607	4696836	XS1292849434	M	8	
BDC	I	2016/02/19	2016/02/19	1104608	4683313	XS1289151505	M	8	
BDC	I	2016/02/19	2016/02/19	1104609	4698456	XS1290042743	I	36	
BDC	I	2016/02/19	2016/02/19	1104610	4698456	XS1290042743	M	36	
BDC	I	2016/02/19	2016/02/19	1104611	4695788	XS1334077317	I	15	
BDC	I	2016/02/19	2016/02/19	1104612	4695788	XS1334077317	M	15	
BDC	I	2016/02/19	2016/02/19	1104613	4695788	XS1334077317	I	8	
BDC	I	2016/02/19	2016/02/19	1104614	4695788	XS1334077317	M	8	
EDI_ENDOFFILE
