EDI_BOCHG_20160219
TableName	Actflag	Created	Changed	BochgID	RelEventID	SecID	ISIN	EffectiveDate	OldOutValue	NewOutValue	EventType	OldOutDate	NewOutDate	Notes
BOCHG	D	2015/06/05	2016/02/19	1161928		4443937	ZM1000002601	2015/02/17	123.00000	123.00000	CORR	2015/02/16	2015/05/25	
BOCHG	D	2015/09/24	2016/02/19	1235386		4022099	XS0918549378	2015/08/24	625.00000	9.44900	CORR	2013/04/23	2015/08/24	
BOCHG	D	2015/10/05	2016/02/19	1242325		4324561	US747262AV51	2015/10/01	400.00000	0.23700	CORR	2014/08/21	2015/10/01	
BOCHG	D	2015/10/08	2016/02/19	1244344		3251509	XS0701688128	2015/10/07	457.52400	454.03400	CORR	2014/12/03	2015/10/07	
BOCHG	D	2015/11/26	2016/02/19	1272519	1767775	421549	DE000A0GYFL1	2015/11/26	48.90000	48.88257	REDEM	2006/09/29	2015/11/26	
BOCHG	D	2016/01/27	2016/02/19	1311187	1788645	4447493	LT0000821654	2016/01/27	0.15800		REDEM	2015/02/10	2016/01/27	
BOCHG	D	2016/02/09	2016/02/19	1318270		575468	XS0114288789	2016/02/08	21218.17666	21130.88280	CORR	2015/09/30	2016/02/08	
BOCHG	D	2016/02/16	2016/02/19	1322201		4702682	US3136G2YM39	2016/02/16	15.00000	155.00000	CORR	2016/02/26	2016/02/26	
BOCHG	D	2016/02/18	2016/02/19	1323252		575468	XS0114288789	2016/02/17	21130.88280	21130.82280	CORR	2016/02/08	2016/02/17	
BOCHG	D	2016/02/18	2016/02/19	1323342		4371037	NZLGFDT006C6	2016/02/22	475.00000	675.00000	REISS	2015/12/14	2016/02/22	
BOCHG	I	2016/02/19	2016/02/19	1323536	1795445	4315282	XS1013152746	2016/02/19	2.20000		REDEM	2014/08/19	2016/02/19	
BOCHG	I	2016/02/19	2016/02/19	1323537	1796824	4155272	TW0003290201	2016/02/19	250.00000		REDEM	2013/12/11	2016/02/19	
BOCHG	I	2016/02/19	2016/02/19	1323538	1805416	337739	XS0245147730	2016/02/19	30.00000		REDEM	2006/02/20	2016/02/19	
BOCHG	I	2016/02/19	2016/02/19	1323539	1805417	350312	FR0010297168	2016/02/19	30.00000		REDEM	2006/03/21	2016/02/19	
BOCHG	I	2016/02/19	2016/02/19	1323540	1805418	621944	NO0010302425	2016/02/19	778.00000		REDEM	2015/12/21	2016/02/19	
BOCHG	I	2016/02/19	2016/02/19	1323541	1805419	736800	XS0336123384	2016/02/19	5.00000		REDEM	2008/01/04	2016/02/19	
BOCHG	I	2016/02/19	2016/02/19	1323542	1805420	990211	JP328620C622	2016/02/19	60000.00000		REDEM	2006/02/20	2016/02/19	
BOCHG	I	2016/02/19	2016/02/19	1323543	1805421	1115898	JP389580A628	2016/02/19	20000.00000		REDEM	2006/02/21	2016/02/19	
BOCHG	I	2016/02/19	2016/02/19	1323544	1805422	1244211	FR0010382507	2016/02/19	50.00000		REDEM	2006/10/19	2016/02/19	
BOCHG	I	2016/02/19	2016/02/19	1323545	1805423	1327712	XS0413651299	2016/02/19	20.00000		REDEM	2009/02/19	2016/02/19	
BOCHG	I	2016/02/19	2016/02/19	1323546	1805424	1340530	MYBDK0900481	2016/02/19	1.80000		REDEM	2009/02/20	2016/02/19	
BOCHG	I	2016/02/19	2016/02/19	1323547	1805425	1340532	MYBDK0900044	2016/02/19	50.00000		REDEM	2009/02/20	2016/02/19	
BOCHG	I	2016/02/19	2016/02/19	1323548	1805426	1371469	UA4000051700	2016/02/19	20.00000		REDEM	2009/03/05	2016/02/19	
BOCHG	I	2016/02/19	2016/02/19	1323549	1805427	1398960	JP336200F626	2016/02/19	20000.00000		REDEM	2006/02/27	2016/02/19	
BOCHG	I	2016/02/19	2016/02/19	1323550	1805428	1445293	DE000HSH26R6	2016/02/19	10.00000		REDEM	2009/02/19	2016/02/19	
BOCHG	I	2016/02/19	2016/02/19	1323551	1805429	1480645	KR3507027W29	2016/02/19	140000.00000		REDEM	2009/02/19	2016/02/19	
BOCHG	I	2016/02/19	2016/02/19	1323552	1805430	1675006	XS0472685246	2016/02/19	3.00000		REDEM	2010/03/05	2016/02/19	
BOCHG	I	2016/02/19	2016/02/19	1323553	1805432	1760879	XS0484710305	2016/02/19	18.00000		REDEM	2015/02/13	2016/02/19	
BOCHG	I	2016/02/19	2016/02/19	1323554	1805433	1763640	XS0485022882	2016/02/19	20.00000		REDEM	2010/02/19	2016/02/19	
BOCHG	I	2016/02/19	2016/02/19	1323555	1805434	1792973	XS0460603938	2016/02/19	0.75000		REDEM	2014/04/17	2016/02/19	
BOCHG	I	2016/02/19	2016/02/19	1323556	1805435	1800960	IT0006712381	2016/02/19	136.37800		REDEM	2010/02/23	2016/02/19	
BOCHG	I	2016/02/19	2016/02/19	1323557	1805436	1808838	DE000LFA0778	2016/02/19	25.00000		REDEM	2010/02/19	2016/02/19	
BOCHG	I	2016/02/19	2016/02/19	1323558	1805437	1841166	DE000BC0BX41	2016/02/19	15.00000		REDEM	2010/02/19	2016/02/19	
BOCHG	I	2016/02/19	2016/02/19	1323559	1805438	1885863	XS0460611790	2016/02/19	4.00000		REDEM	2014/04/16	2016/02/19	
BOCHG	I	2016/02/19	2016/02/19	1323560	1805440	2237013	XS0565471348	2016/02/19	0.05000		REDEM	2014/03/10	2016/02/19	
BOCHG	I	2016/02/19	2016/02/19	1323561	1805441	2464102	DE000BC0CH81	2016/02/19	10.00000		REDEM	2011/02/21	2016/02/19	
BOCHG	I	2016/02/19	2016/02/19	1323562	1805442	2710668	DE000LB0FSC0	2016/02/19	10.00000		REDEM	2011/05/17	2016/02/19	
BOCHG	I	2016/02/19	2016/02/19	1323563	1805444	2965866	DE000HSH3R04	2016/02/19	46.54600		REDEM	2014/02/20	2016/02/19	
BOCHG	I	2016/02/19	2016/02/19	1323564	1805446	3924575	INE013A07SG1	2016/02/19	13.00000		REDEM	2012/10/19	2016/02/19	
BOCHG	I	2016/02/19	2016/02/19	1323565	1805447	3969199	XS0813881728	2016/02/19	1.00000		REDEM	2013/02/05	2016/02/19	
BOCHG	I	2016/02/19	2016/02/19	1323566	1805448	3971785	XS0868892000	2016/02/19	3749.00000		REDEM	2013/02/27	2016/02/19	
BOCHG	I	2016/02/19	2016/02/19	1323567	1805449	3972860	XS0884057901	2016/02/19	5.00000		REDEM	2013/02/19	2016/02/19	
BOCHG	I	2016/02/19	2016/02/19	1323568	1805450	3977465	IDA0000568C4	2016/02/19	155000.00000		REDEM	2013/02/19	2016/02/19	
BOCHG	I	2016/02/19	2016/02/19	1323569	1805451	3977812	XS0887933744	2016/02/19	1.97500		REDEM	2013/02/19	2016/02/19	
BOCHG	I	2016/02/19	2016/02/19	1323570	1805452	3978251	XS0842647769	2016/02/19	3.50000		REDEM	2013/02/19	2016/02/19	
BOCHG	I	2016/02/19	2016/02/19	1323571	1805453	3978270	XS0839776126	2016/02/19	4.00000		REDEM	2013/12/02	2016/02/19	
BOCHG	I	2016/02/19	2016/02/19	1323572	1805454	3978508	XS0842601857	2016/02/19	0.50000		REDEM	2013/02/19	2016/02/19	
BOCHG	I	2016/02/19	2016/02/19	1323573	1805455	3978521	XS0842602749	2016/02/19	2.70000		REDEM	2015/07/01	2016/02/19	
BOCHG	I	2016/02/19	2016/02/19	1323574	1805456	3981512	US92857WBB54	2016/02/19	700.00000		REDEM	2013/02/19	2016/02/19	
BOCHG	I	2016/02/19	2016/02/19	1323575	1805457	3983096	IDA0000570C0	2016/02/19	1498000.00000		REDEM	2013/02/19	2016/02/19	
BOCHG	I	2016/02/19	2016/02/19	1323576	1805458	3985188	XS0839778171	2016/02/19	0.12500		REDEM	2014/10/27	2016/02/19	
BOCHG	I	2016/02/19	2016/02/19	1323577	1805459	3985873	NO0010672397	2016/02/19	1500.00000		REDEM	2013/02/19	2016/02/19	
BOCHG	I	2016/02/19	2016/02/19	1323578	1805460	3985914	NO0010671159	2016/02/19	176.00000		REDEM	2013/02/19	2016/02/19	
BOCHG	I	2016/02/19	2016/02/19	1323579	1805461	3986031	KR600345V322	2016/02/19	190000.00000		REDEM	2013/02/19	2016/02/19	
BOCHG	I	2016/02/19	2016/02/19	1323580	1805462	3986033	KR600345W320	2016/02/19	60000.00000		REDEM	2013/02/19	2016/02/19	
BOCHG	I	2016/02/19	2016/02/19	1323581	1805463	3986038	KR6079314326	2016/02/19	10000.00000		REDEM	2013/02/19	2016/02/19	
BOCHG	I	2016/02/19	2016/02/19	1323582	1805464	3986466	INE092T08725	2016/02/19	5000.00000		REDEM	2013/02/21	2016/02/19	
BOCHG	I	2016/02/19	2016/02/19	1323583	1805465	3987206	RU000A0JTMY0	2016/02/19	1288.39500		REDEM	2014/02/21	2016/02/19	
BOCHG	I	2016/02/19	2016/02/19	1323584	1805466	3987236	RU000A0JTN43	2016/02/19	354.98000		REDEM	2014/08/22	2016/02/19	
BOCHG	I	2016/02/19	2016/02/19	1323585	1805467	3988714	MX95FE040020	2016/02/19	6000.00000		REDEM	2013/02/22	2016/02/19	
BOCHG	I	2016/02/19	2016/02/19	1323586	1805468	3989723	XS0888315602	2016/02/19	1.00000		REDEM	2013/08/12	2016/02/19	
BOCHG	I	2016/02/19	2016/02/19	1323587	1805469	3991540	XS0888974630	2016/02/19	0.20000		REDEM	2015/04/23	2016/02/19	
BOCHG	I	2016/02/19	2016/02/19	1323588	1805470	3992639	LT0000830093	2016/02/19	4.83958		REDEM	2015/02/19	2016/02/19	
BOCHG	I	2016/02/19	2016/02/19	1323589	1805471	3994969	VNBVBS130774	2016/02/19	500000.00000		REDEM	2013/02/19	2016/02/19	
BOCHG	I	2016/02/19	2016/02/19	1323590	1805472	3996139	XS0873785603	2016/02/19	15.49920		REDEM	2013/02/20	2016/02/19	
BOCHG	I	2016/02/19	2016/02/19	1323591	1805473	4006593	BY34012A6162	2016/02/19	0.46300		REDEM	2013/02/20	2016/02/19	
BOCHG	I	2016/02/19	2016/02/19	1323592	1805474	4040440	AREMGA050067	2016/02/19	11.66900		REDEM	2015/08/19	2016/02/19	
BOCHG	I	2016/02/19	2016/02/19	1323593	1805475	4041042	PLMWTRD00070	2016/02/19	30.00000		REDEM	2013/02/19	2016/02/19	
BOCHG	I	2016/02/19	2016/02/19	1323594	1805476	4041046	PLMWTRD00088	2016/02/19	10.00000		REDEM	2013/02/19	2016/02/19	
BOCHG	I	2016/02/19	2016/02/19	1323595	1805477	4078316	US2515A0Y565	2016/02/19	1.28600		REDEM	2010/05/19	2016/02/19	
BOCHG	I	2016/02/19	2016/02/19	1323596	1805478	4088048	XS0960772118	2016/02/19	1.00000		REDEM	2013/08/19	2016/02/19	
BOCHG	I	2016/02/19	2016/02/19	1323597	1805479	4091901	XS0963399174	2016/02/19	500.00000		REDEM	2013/08/19	2016/02/19	
BOCHG	I	2016/02/19	2016/02/19	1323598	1805480	4095636	IT0004955719	2016/02/19	5.49400		REDEM	2013/08/19	2016/02/19	
BOCHG	I	2016/02/19	2016/02/19	1323599	1805481	4097912	XS0888976254	2016/02/19	0.50000		REDEM	2013/02/20	2016/02/19	
BOCHG	I	2016/02/19	2016/02/19	1323600	1805482	4151366	DE000A1YCTB0	2016/02/19	100.00000		REDEM	2013/11/19	2016/02/19	
BOCHG	I	2016/02/19	2016/02/19	1323601	1805484	4186229	US3130A0SD36	2016/02/19	3000.00000		REDEM	2014/01/24	2016/02/19	
BOCHG	I	2016/02/19	2016/02/19	1323602	1805485	4192918	JP369540AE24	2016/02/19	40000.00000		REDEM	2014/02/06	2016/02/19	
BOCHG	I	2016/02/19	2016/02/19	1323603	1805491	4196771	XS1027545067	2016/02/19	1.75000		REDEM	2014/12/16	2016/02/19	
BOCHG	I	2016/02/19	2016/02/19	1323604	1805492	4197528	JP326497AE27	2016/02/19	100000.00000		REDEM	2014/02/19	2016/02/19	
BOCHG	I	2016/02/19	2016/02/19	1323605	1805493	4197775	XS0993314888	2016/02/19	5.00000		REDEM	2014/02/19	2016/02/19	
BOCHG	I	2016/02/19	2016/02/19	1323606	1805497	4200607	XS1033927648	2016/02/19	1150.00000		REDEM	2015/05/19	2016/02/19	
BOCHG	I	2016/02/19	2016/02/19	1323607	1805498	4200962	US3133EDFQ08	2016/02/19	70.00000		REDEM	2014/02/19	2016/02/19	
BOCHG	I	2016/02/19	2016/02/19	1323608	1805499	4201028	XS0461235144	2016/02/19	2.00000		REDEM	2014/02/26	2016/02/19	
BOCHG	I	2016/02/19	2016/02/19	1323609	1805500	4202080	US38147QPF71	2016/02/19	5.10000		REDEM	2014/02/19	2016/02/19	
BOCHG	I	2016/02/19	2016/02/19	1323610	1805501	4204848	US22547QHX79	2016/02/19	0.80000		REDEM	2014/02/19	2016/02/19	
BOCHG	I	2016/02/19	2016/02/19	1323611	1805502	4205496	IT0004998743	2016/02/19	0.50000		REDEM	2014/02/19	2016/02/19	
BOCHG	I	2016/02/19	2016/02/19	1323612	1805503	4205567	XS1034445780	2016/02/19	1.00000		REDEM	2014/02/19	2016/02/19	
BOCHG	I	2016/02/19	2016/02/19	1323613	1805504	4205597	IT0004998461	2016/02/19	7.00000		REDEM	2014/02/19	2016/02/19	
BOCHG	I	2016/02/19	2016/02/19	1323614	1805505	4205691	AT000B013313	2016/02/19	28.00000		REDEM	2014/02/19	2016/02/19	
BOCHG	I	2016/02/19	2016/02/19	1323615	1805506	4206595	SE0005731890	2016/02/19	350.00000		REDEM	2014/02/20	2016/02/19	
BOCHG	I	2016/02/19	2016/02/19	1323616	1805508	4211313	DE000CB0BYC8	2016/02/19	2.00000		REDEM	2014/02/19	2016/02/19	
BOCHG	I	2016/02/19	2016/02/19	1323617	1805509	4229317	JP371120AE28	2016/02/19	5600.00000		REDEM	2014/02/27	2016/02/19	
BOCHG	I	2016/02/19	2016/02/19	1323618	1805510	4298928	AT000B031067	2016/02/19	5.00000		REDEM	2006/02/20	2016/02/19	
BOCHG	I	2016/02/19	2016/02/19	1323619	1805511	4327370	US38148F1580	2016/02/19	12.00000		REDEM	2014/08/20	2016/02/19	
BOCHG	I	2016/02/19	2016/02/19	1323620	1805512	4327959	XS1100423703	2016/02/19	0.83700		REDEM	2014/08/19	2016/02/19	
BOCHG	I	2016/02/19	2016/02/19	1323621	1805513	4334417	XS0461305707	2016/02/19	0.80000		REDEM	2014/08/26	2016/02/19	
BOCHG	I	2016/02/19	2016/02/19	1323622	1805514	4335304	US48127DXA17	2016/02/19	2.75000		REDEM	2014/08/18	2016/02/19	
BOCHG	I	2016/02/19	2016/02/19	1323623	1805515	4349269	INE759E07244	2016/02/19	3000.00000		REDEM	2014/09/16	2016/02/19	
BOCHG	I	2016/02/19	2016/02/19	1323624	1805516	4371041	KR620580H493	2016/02/19	5000.00000		REDEM	2014/09/19	2016/02/19	
BOCHG	I	2016/02/19	2016/02/19	1323625	1805517	4398623	INE071G07124	2016/02/19	500.00000		REDEM	2014/12/04	2016/02/19	
BOCHG	I	2016/02/19	2016/02/19	1323626	1805521	4428906	XS1167826939	2016/02/19	150.00000		REDEM	2015/01/20	2016/02/19	
BOCHG	I	2016/02/19	2016/02/19	1323627	1805522	4429690	US48127D5U82	2016/02/19	7.72700		REDEM	2015/01/23	2016/02/19	
BOCHG	I	2016/02/19	2016/02/19	1323628	1805523	4430708	XS1139711771	2016/02/19	1.00000		REDEM	2015/02/19	2016/02/19	
BOCHG	I	2016/02/19	2016/02/19	1323629	1805524	4432605	XS1176596150	2016/02/19	500.00000		REDEM	2015/02/18	2016/02/19	
BOCHG	I	2016/02/19	2016/02/19	1323630	1805525	4432863	XS1176689328	2016/02/19	2.50000		REDEM	2015/02/19	2016/02/19	
BOCHG	I	2016/02/19	2016/02/19	1323631	1805526	4434717	XS1179334070	2016/02/19	1.60000		REDEM	2015/02/02	2016/02/19	
BOCHG	I	2016/02/19	2016/02/19	1323632	1805527	4437157	XS1183022570	2016/02/19	5.00000		REDEM	2015/02/05	2016/02/19	
BOCHG	I	2016/02/19	2016/02/19	1323633	1805528	4438214	XS1183825873	2016/02/19	9.70000		REDEM	2015/02/13	2016/02/19	
BOCHG	I	2016/02/19	2016/02/19	1323634	1805530	4439241	XS1184945472	2016/02/19	6.50000		REDEM	2015/02/17	2016/02/19	
BOCHG	I	2016/02/19	2016/02/19	1323635	1805531	4441220	XS1188305046	2016/02/19	0.23000		REDEM	2015/02/19	2016/02/19	
BOCHG	I	2016/02/19	2016/02/19	1323636	1805533	4444658	XS1190623220	2016/02/19	0.10000		REDEM	2015/02/19	2016/02/19	
BOCHG	I	2016/02/19	2016/02/19	1323637	1805534	4444690	XS1190654027	2016/02/19	10.00000		REDEM	2015/02/19	2016/02/19	
BOCHG	I	2016/02/19	2016/02/19	1323638	1805535	4444721	XS1190709888	2016/02/19	0.10000		REDEM	2015/02/19	2016/02/19	
BOCHG	I	2016/02/19	2016/02/19	1323639	1805536	4444728	XS1190710209	2016/02/19	18.00000		REDEM	2015/02/19	2016/02/19	
BOCHG	I	2016/02/19	2016/02/19	1323640	1805537	4444773	XS1190610839	2016/02/19	18.00000		REDEM	2015/02/19	2016/02/19	
BOCHG	I	2016/02/19	2016/02/19	1323641	1805538	4444861	US3133EEQJ29	2016/02/19	25.00000		REDEM	2015/02/19	2016/02/19	
BOCHG	I	2016/02/19	2016/02/19	1323642	1805539	4447334	IN002014Z249	2016/02/19	60000.00000		REDEM	2015/02/20	2016/02/19	
BOCHG	I	2016/02/19	2016/02/19	1323643	1805543	4448440	MYBTE1500107	2016/02/19	100.00000		REDEM	2015/02/18	2016/02/19	
BOCHG	I	2016/02/19	2016/02/19	1323644	1805544	4448849	XS1193269583	2016/02/19	0.30321		REDEM	2015/02/18	2016/02/19	
BOCHG	I	2016/02/19	2016/02/19	1323645	1805545	4448889		2016/02/19	40.00000		REDEM	2015/02/20	2016/02/19	
BOCHG	I	2016/02/19	2016/02/19	1323646	1805546	4449153	LKA36416B192	2016/02/19	2732.00000		REDEM	2015/02/20	2016/02/19	
BOCHG	I	2016/02/19	2016/02/19	1323647	1805547	4449284	CH0262819680	2016/02/19	2.00000		REDEM	2015/02/20	2016/02/19	
BOCHG	I	2016/02/19	2016/02/19	1323648	1805548	4449421	ES0L01602199	2016/02/19	8633.70000		REDEM	2015/12/31	2016/02/19	
BOCHG	I	2016/02/19	2016/02/19	1323649	1805551	4449943	XS1195113052	2016/02/19	2.00000		REDEM	2015/02/20	2016/02/19	
BOCHG	I	2016/02/19	2016/02/19	1323650	1805552	4449969	XS1193964845	2016/02/19	3.00000		REDEM	2015/02/20	2016/02/19	
BOCHG	I	2016/02/19	2016/02/19	1323651	1805553	4449974	XS1194021157	2016/02/19	2.22000		REDEM	2015/02/20	2016/02/19	
BOCHG	I	2016/02/19	2016/02/19	1323652	1805554	4450015	CM1300000153	2016/02/19	10000.00000		REDEM		2016/02/19	
BOCHG	I	2016/02/19	2016/02/19	1323653	1805555	4450185		2016/02/19	150.00000		REDEM	2015/02/20	2016/02/19	
BOCHG	I	2016/02/19	2016/02/19	1323654	1805557	4450459	CZ0001004444	2016/02/19	8000.00000		REDEM	2015/02/20	2016/02/19	
BOCHG	I	2016/02/19	2016/02/19	1323655	1805558	4450551	NO0010731623	2016/02/19	200.00000		REDEM	2015/02/20	2016/02/19	
BOCHG	I	2016/02/19	2016/02/19	1323656	1805559	4451025	BE6276553714	2016/02/19	25.00000		REDEM	2015/02/20	2016/02/19	
BOCHG	I	2016/02/19	2016/02/19	1323657	1805560	4451458	XS1195581076	2016/02/19	5.55000		REDEM	2015/02/23	2016/02/19	
BOCHG	I	2016/02/19	2016/02/19	1323658	1805561	4452557	FR0122947478	2016/02/19	80.00000		REDEM	2015/02/19	2016/02/19	
BOCHG	I	2016/02/19	2016/02/19	1323659	1805563	4453376	XS1196396037	2016/02/19	2.03000		REDEM	2015/02/25	2016/02/19	
BOCHG	I	2016/02/19	2016/02/19	1323660	1805564	4453403	FR0122946660	2016/02/19	10.00000		REDEM	2015/02/19	2016/02/19	
BOCHG	I	2016/02/19	2016/02/19	1323661	1805565	4458814	DO1002230428	2016/02/19	4800.00000		REDEM	2011/02/19	2016/02/19	
BOCHG	I	2016/02/19	2016/02/19	1323662	1805566	4460941	XS1198879337	2016/02/19	5.00000		REDEM	2015/03/06	2016/02/19	
BOCHG	I	2016/02/19	2016/02/19	1323663	1805567	4466583	DE000CB0E3E0	2016/02/19	5.00000		REDEM	2015/02/19	2016/02/19	
BOCHG	I	2016/02/19	2016/02/19	1323664	1805568	4485682	US3133EEZG88	2016/02/19	150.00000		REDEM	2015/04/22	2016/02/19	
BOCHG	I	2016/02/19	2016/02/19	1323665	1805569	4499161	US65558EHA91	2016/02/19	102.00000		REDEM	2013/02/19	2016/02/19	
BOCHG	I	2016/02/19	2016/02/19	1323666	1805573	4517339	SZGT27301700	2016/02/19	40.00000		REDEM	2015/05/22	2016/02/19	
BOCHG	I	2016/02/19	2016/02/19	1323667	1805574	4518272	MU0GBLA01194	2016/02/19	800.00000		REDEM	2015/05/22	2016/02/19	
BOCHG	I	2016/02/19	2016/02/19	1323668	1805575	4518694	KR310507A553	2016/02/19	400000.00000		REDEM	2015/05/19	2016/02/19	
BOCHG	I	2016/02/19	2016/02/19	1323669	1805576	4521838		2016/02/19	1000.00000		REDEM	2015/05/18	2016/02/19	
BOCHG	I	2016/02/19	2016/02/19	1323670	1805579	4525130		2016/02/19	300.00000		REDEM	2015/05/21	2016/02/19	
BOCHG	I	2016/02/19	2016/02/19	1323671	1805580	4525156		2016/02/19	800.00000		REDEM	2015/05/22	2016/02/19	
BOCHG	I	2016/02/19	2016/02/19	1323672	1805581	4532870	SG6XF6000000	2016/02/19	4000.00000		REDEM	2015/11/27	2016/02/19	
BOCHG	I	2016/02/19	2016/02/19	1323673	1805582	4534282		2016/02/19	500.00000		REDEM	2015/05/18	2016/02/19	
BOCHG	I	2016/02/19	2016/02/19	1323674	1805583	4534642		2016/02/19	2000.00000		REDEM	2015/05/18	2016/02/19	
BOCHG	I	2016/02/19	2016/02/19	1323675	1805584	4578568	MX0FBS0004N5	2016/02/19	1000.00000		REDEM	2015/08/07	2016/02/19	
BOCHG	I	2016/02/19	2016/02/19	1323676	1805585	4582964	US3130A6CT22	2016/02/19	115.00000		REDEM	2015/08/20	2016/02/19	
BOCHG	I	2016/02/19	2016/02/19	1323677	1805586	4584379		2016/02/19	500.00000		REDEM	2015/08/18	2016/02/19	
BOCHG	I	2016/02/19	2016/02/19	1323678	1805587	4584385		2016/02/19	600.00000		REDEM	2015/08/18	2016/02/19	
BOCHG	I	2016/02/19	2016/02/19	1323679	1805588	4584404		2016/02/19	500.00000		REDEM	2015/08/18	2016/02/19	
BOCHG	I	2016/02/19	2016/02/19	1323680	1805589	4584407		2016/02/19	900.00000		REDEM	2015/08/18	2016/02/19	
BOCHG	I	2016/02/19	2016/02/19	1323681	1805590	4584426		2016/02/19	300.00000		REDEM	2015/08/18	2016/02/19	
BOCHG	I	2016/02/19	2016/02/19	1323682	1805592	4584521		2016/02/19	5.70000		REDEM	2015/08/21	2016/02/19	
BOCHG	I	2016/02/19	2016/02/19	1323683	1805597	4585328		2016/02/19	450.00000		REDEM	2015/08/19	2016/02/19	
BOCHG	I	2016/02/19	2016/02/19	1323684	1805598	4585652		2016/02/19	400.00010		REDEM	2015/08/21	2016/02/19	
BOCHG	I	2016/02/19	2016/02/19	1323685	1805599	4588984		2016/02/19	40.00000		REDEM	2015/08/21	2016/02/19	
BOCHG	I	2016/02/19	2016/02/19	1323686	1805601	4589221	LKA18216B198	2016/02/19	3725.00000		REDEM	2015/08/21	2016/02/19	
BOCHG	I	2016/02/19	2016/02/19	1323687	1805606	4590131		2016/02/19	343.80000		REDEM	2015/08/21	2016/02/19	
BOCHG	I	2016/02/19	2016/02/19	1323688	1805611	4590673	MYBRD1502141	2016/02/19	50.00000		REDEM	2015/08/21	2016/02/19	
BOCHG	I	2016/02/19	2016/02/19	1323689	1805614	4593819	CM1200000303	2016/02/19	5000.00000		REDEM	2015/08/21	2016/02/19	
BOCHG	I	2016/02/19	2016/02/19	1323690	1805615	4593821	GA1200000188	2016/02/19	3000.00000		REDEM		2016/02/19	
BOCHG	I	2016/02/19	2016/02/19	1323691	1805617	4597530	IS0000026102	2016/02/19	540.00000		REDEM	2015/08/20	2016/02/19	
BOCHG	I	2016/02/19	2016/02/19	1323692	1805621	4598360	TRFGRFK21621	2016/02/19	155.82000		REDEM	2015/08/26	2016/02/19	
BOCHG	I	2016/02/19	2016/02/19	1323693	1805622	4606269	BY4208208776	2016/02/19	10600.00000		REDEM	2011/03/14	2016/02/19	
BOCHG	I	2016/02/19	2016/02/19	1323694	1805623	4609499	XS1293654718	2016/02/19	50.00000		REDEM	2015/09/18	2016/02/19	
BOCHG	I	2016/02/19	2016/02/19	1323695	1805626	4620437		2016/02/19	33.67000		REDEM	2015/08/21	2016/02/19	
BOCHG	I	2016/02/19	2016/02/19	1323696	1805628	4625697	XS1308022141	2016/02/19	70.00000		REDEM	2015/10/14	2016/02/19	
BOCHG	I	2016/02/19	2016/02/19	1323697	1805631	4632320		2016/02/19	5400.00000		REDEM	2015/10/22	2016/02/19	
BOCHG	I	2016/02/19	2016/02/19	1323698	1805635	4645557	FR0123361679	2016/02/19	17.00000		REDEM	2015/11/20	2016/02/19	
BOCHG	I	2016/02/19	2016/02/19	1323699	1805643	4646860		2016/02/19	400.00000		REDEM	2015/11/17	2016/02/19	
BOCHG	I	2016/02/19	2016/02/19	1323700	1805644	4646892		2016/02/19	100.00000		REDEM	2015/11/18	2016/02/19	
BOCHG	I	2016/02/19	2016/02/19	1323701	1805645	4646899		2016/02/19	600.00000		REDEM	2015/11/18	2016/02/19	
BOCHG	I	2016/02/19	2016/02/19	1323702	1805646	4646905		2016/02/19	50.00000		REDEM	2015/11/18	2016/02/19	
BOCHG	I	2016/02/19	2016/02/19	1323703	1805647	4646906		2016/02/19	350.00000		REDEM	2015/11/18	2016/02/19	
BOCHG	I	2016/02/19	2016/02/19	1323704	1805648	4646907		2016/02/19	400.00000		REDEM	2015/11/18	2016/02/19	
BOCHG	I	2016/02/19	2016/02/19	1323705	1805650	4646910		2016/02/19	500.00000		REDEM	2015/11/18	2016/02/19	
BOCHG	I	2016/02/19	2016/02/19	1323706	1805651	4646921		2016/02/19	400.00000		REDEM	2015/11/18	2016/02/19	
BOCHG	I	2016/02/19	2016/02/19	1323707	1805652	4646926		2016/02/19	100.00000		REDEM	2015/11/18	2016/02/19	
BOCHG	I	2016/02/19	2016/02/19	1323708	1805653	4646964		2016/02/19	100.00000		REDEM	2015/11/18	2016/02/19	
BOCHG	I	2016/02/19	2016/02/19	1323709	1805654	4646969		2016/02/19	300.00000		REDEM	2015/11/18	2016/02/19	
BOCHG	I	2016/02/19	2016/02/19	1323710	1805655	4646974		2016/02/19	200.00000		REDEM	2015/11/18	2016/02/19	
BOCHG	I	2016/02/19	2016/02/19	1323711	1805657	4647928		2016/02/19	400.00000		REDEM	2015/11/20	2016/02/19	
BOCHG	I	2016/02/19	2016/02/19	1323712	1805658	4648058	XS1324288916	2016/02/19	32.00000		REDEM	2015/11/19	2016/02/19	
BOCHG	I	2016/02/19	2016/02/19	1323713	1805659	4648082	XS1324534202	2016/02/19	20.00000		REDEM	2015/11/19	2016/02/19	
BOCHG	I	2016/02/19	2016/02/19	1323714	1805660	4648091		2016/02/19	40.08000		REDEM	2015/11/20	2016/02/19	
BOCHG	I	2016/02/19	2016/02/19	1323715	1805665	4648310		2016/02/19	21.00000		REDEM	2015/11/20	2016/02/19	
BOCHG	I	2016/02/19	2016/02/19	1323716	1805667	4648553		2016/02/19	100.00000		REDEM	2015/10/19	2016/02/19	
BOCHG	I	2016/02/19	2016/02/19	1323717	1805668	4648981	NO0010752587	2016/02/19	400.00000		REDEM	2015/11/19	2016/02/19	
BOCHG	I	2016/02/19	2016/02/19	1323718	1805669	4649016		2016/02/19	1000.00000		REDEM	2015/11/19	2016/02/19	
BOCHG	I	2016/02/19	2016/02/19	1323719	1805672	4649672	MU0GBLA01863	2016/02/19	523.60000		REDEM	2015/11/20	2016/02/19	
BOCHG	I	2016/02/19	2016/02/19	1323720	1805678	4652783		2016/02/19	336.65700		REDEM	2015/11/20	2016/02/19	
BOCHG	I	2016/02/19	2016/02/19	1323721	1805689	4658878	TRFDNFK21619	2016/02/19	125.00000		REDEM	2015/11/20	2016/02/19	
BOCHG	I	2016/02/19	2016/02/19	1323722	1805691	4663308	SI0032501270	2016/02/19	4.59700		REDEM	2015/05/22	2016/02/19	
BOCHG	I	2016/02/19	2016/02/19	1323723	1805721	4686866	MYBRA1600172	2016/02/19	43.00000		REDEM	2016/01/19	2016/02/19	
BOCHG	I	2016/02/19	2016/02/19	1323724	1805722	4687178	IDL000003302	2016/02/19	200000.00000		REDEM	2015/11/19	2016/02/19	
BOCHG	I	2016/02/19	2016/02/19	1323725	1806349	1230957	US05462GAA22	2016/02/19	50.39800		REDEM	2013/12/20	2016/02/19	
BOCHG	I	2016/02/19	2016/02/19	1323726	1806350	840133	USP06064AA01	2016/02/19	50.39800		REDEM	2013/12/20	2016/02/19	
BOCHG	I	2016/02/19	2016/02/19	1323727	1806351	1592362	US05462GAC87	2016/02/19	101.73000		REDEM	2013/12/20	2016/02/19	
BOCHG	I	2016/02/19	2016/02/19	1323728	1806352	1592385	USP06064AB83	2016/02/19	101.73000		REDEM	2013/12/20	2016/02/19	
BOCHG	I	2016/02/19	2016/02/19	1323729	1806353	4008142	US05462GAE44	2016/02/19	544.65300		REDEM	2014/09/17	2016/02/19	
BOCHG	I	2016/02/19	2016/02/19	1323730	1806354	4008216	USP0606PAD70	2016/02/19	544.65300		REDEM	2014/09/17	2016/02/19	
BOCHG	I	2016/02/19	2016/02/19	1323731	1806355	4008268	US05462GAG91	2016/02/19	16.72200		REDEM	2013/12/31	2016/02/19	
BOCHG	I	2016/02/19	2016/02/19	1323732	1807151	4008161	US05462GAF19	2016/02/19	185.24010		REDEM	2013/01/31	2016/02/19	
BOCHG	I	2016/02/19	2016/02/19	1323733	1807152	4008227	USP0606PAE53	2016/02/19	81.62660		REDEM	2013/01/31	2016/02/19	
BOCHG	I	2016/02/19	2016/02/19	1323734	1807153	4008260	US05462GAH74	2016/02/19	16.66650		REDEM	2013/01/31	2016/02/19	
BOCHG	I	2016/02/19	2016/02/19	1323735	1811974	4697949	US05965WBW01	2016/02/19	1.00000		REDEM	2015/05/22	2016/02/19	
BOCHG	I	2016/02/19	2016/02/19	1323736	1812398	4698212		2016/02/19	355.00000		REDEM	2016/01/22	2016/02/19	
BOCHG	I	2016/02/19	2016/02/19	1323737	1812464	4698483	NIBCN00L3669	2016/02/19	5.00000		REDEM	2016/01/29	2016/02/19	
BOCHG	I	2016/02/19	2016/02/19	1323738	1813125	4699008	SG70B2000005	2016/02/19	500.00000		REDEM	2016/01/22	2016/02/19	
BOCHG	I	2016/02/19	2016/02/19	1323739	1813474	4571345	XS1268516348	2016/02/19	1.00000		REDEM	2015/08/19	2016/02/19	
BOCHG	I	2016/02/19	2016/02/19	1323740	1813501	4687488		2016/02/19	1000.00000		REDEM	2016/01/18	2016/02/19	
BOCHG	I	2016/02/19	2016/02/19	1323741	1813506	4687505		2016/02/19	400.00000		REDEM	2016/01/18	2016/02/19	
BOCHG	I	2016/02/19	2016/02/19	1323742	1813525	4687506		2016/02/19	5500.00000		REDEM	2016/01/18	2016/02/19	
BOCHG	I	2016/02/19	2016/02/19	1323743	1813531	4687535		2016/02/19	3000.00000		REDEM	2016/01/18	2016/02/19	
BOCHG	I	2016/02/19	2016/02/19	1323744	1813739	4687542		2016/02/19	200.00000		REDEM	2016/01/18	2016/02/19	
BOCHG	I	2016/02/19	2016/02/19	1323745	1813745	1094552	XS0381361434	2016/02/19	300.00000		REDEM	2008/08/19	2016/02/19	
BOCHG	I	2016/02/19	2016/02/19	1323746	1813767	760303	XS0343612312	2016/02/19	500.00000		REDEM	2008/02/19	2016/02/19	
BOCHG	I	2016/02/19	2016/02/19	1323747	1814314	4205605	DE000A1YC7G4	2016/02/19	5.00000		REDEM	2014/02/19	2016/02/19	
BOCHG	I	2016/02/19	2016/02/19	1323748	1814358	4701497	NIBCN00L3727	2016/02/19	5.00000		REDEM	2016/02/05	2016/02/19	
BOCHG	I	2016/02/19	2016/02/19	1323749	1820755	4430564	US3136G2D954	2016/02/19	60.00000		REDEM	2015/02/19	2016/02/19	
BOCHG	I	2016/02/19	2016/02/19	1323750	1820756	4440864	US3135G0C506	2016/02/19	250.00000		REDEM	2015/02/19	2016/02/19	
BOCHG	I	2016/02/19	2016/02/19	1323751	1820757	4432348	US3136G2DJ39	2016/02/19	20.00000		REDEM	2015/02/19	2016/02/19	
BOCHG	I	2016/02/19	2016/02/19	1323752	1820758	4439056	US3136G2ED59	2016/02/19	18.00000		REDEM	2015/02/19	2016/02/19	
BOCHG	I	2016/02/19	2016/02/19	1323753	1821362	3542941	XS0746025252	2016/02/19	3.88209		REDEM	2015/12/17	2016/02/19	
BOCHG	I	2016/02/19	2016/02/19	1323754	1821390	2544611	XS0469787815	2016/02/19	0.26541		REDEM	2015/12/23	2016/02/19	
BOCHG	I	2016/02/19	2016/02/19	1323755	1821570	4366321	US3130A3DH44	2016/02/19	10.00000		REDEM	2014/11/13	2016/02/19	
BOCHG	I	2016/02/19	2016/02/19	1323756	1821571	4423693	US3130A3WL45	2016/02/19	10.00000		REDEM	2015/01/29	2016/02/19	
BOCHG	I	2016/02/19	2016/02/19	1323757	1821572	4434908	US3130A42C52	2016/02/19	10.00000		REDEM	2015/02/18	2016/02/19	
BOCHG	I	2016/02/19	2016/02/19	1323758	1821575	4498853	US3130A5AJ84	2016/02/19	20.00000		REDEM	2015/05/19	2016/02/19	
BOCHG	I	2016/02/19	2016/02/19	1323759	1821576	4525165	US3130A5JQ37	2016/02/19	10.00000		REDEM	2015/06/24	2016/02/19	
BOCHG	I	2016/02/19	2016/02/19	1323760	1821577	4558432	US3130A5Z440	2016/02/19	15.00000		REDEM	2015/08/19	2016/02/19	
BOCHG	I	2016/02/19	2016/02/19	1323761	1821578	3904806	US313380RQ24	2016/02/19	100.00000		REDEM	2012/10/09	2016/02/19	
BOCHG	I	2016/02/19	2016/02/19	1323762	1821580	3979538	US313382AH63	2016/02/19	25.00000		REDEM	2013/03/04	2016/02/19	
BOCHG	I	2016/02/19	2016/02/19	1323763	1821585	3878827	XS0812128485	2016/02/19	100.00000		REDEM	2014/10/16	2016/02/19	
BOCHG	I	2016/02/19	2016/02/19	1323764	1821596	3909410	US3133EA2M97	2016/02/19	20.00000		REDEM	2012/10/02	2016/02/19	
BOCHG	I	2016/02/19	2016/02/19	1323765	1821597	3882701	US3133EAJ582	2016/02/19	18.00000		REDEM	2012/08/14	2016/02/19	
BOCHG	I	2016/02/19	2016/02/19	1323766	1821598	3932672	US3133EC2R49	2016/02/19	30.00000		REDEM	2012/11/13	2016/02/19	
BOCHG	I	2016/02/19	2016/02/19	1323767	1821599	3981296	US3133ECFP42	2016/02/19	65.00000		REDEM	2013/02/19	2016/02/19	
BOCHG	I	2016/02/19	2016/02/19	1323768	1821600	4001924	US3133ECJR61	2016/02/19	130.00000		REDEM	2013/03/21	2016/02/19	
BOCHG	I	2016/02/19	2016/02/19	1323769	1821601	4001929	US3133ECJS45	2016/02/19	30.00000		REDEM	2013/03/21	2016/02/19	
BOCHG	I	2016/02/19	2016/02/19	1323770	1821602	4013139	US3133ECKH60	2016/02/19	20.00000		REDEM	2013/04/02	2016/02/19	
BOCHG	I	2016/02/19	2016/02/19	1323771	1821603	4445630	US3133EEQN31	2016/02/19	80.00000		REDEM	2015/02/19	2016/02/19	
BOCHG	I	2016/02/19	2016/02/19	1323772	1821604	4609752	US3133EFFB86	2016/02/19	170.00000		REDEM	2015/09/28	2016/02/19	
BOCHG	I	2016/02/19	2016/02/19	1323773	1821654	4704530	NIBCN00L3743	2016/02/19	4.00000		REDEM	2016/02/12	2016/02/19	
BOCHG	I	2016/02/19	2016/02/19	1323774	1822244	4196905	US3134G4UQ99	2016/02/19	250.00000		REDEM	2014/02/19	2016/02/19	
BOCHG	I	2016/02/19	2016/02/19	1323775	1822245	4500738	US3134G6C272	2016/02/19	25.00000		REDEM	2015/05/19	2016/02/19	
BOCHG	I	2016/02/19	2016/02/19	1323776	1822246	4634815	US3134G77L91	2016/02/19	25.00000		REDEM	2015/11/19	2016/02/19	
BOCHG	I	2016/02/19	2016/02/19	1323777	1822247	4575169	US3134G7QU88	2016/02/19	25.00000		REDEM	2015/08/19	2016/02/19	
BOCHG	I	2016/02/19	2016/02/19	1323778	1822248	4577045	US3134G7RR41	2016/02/19	35.00000		REDEM	2015/08/19	2016/02/19	
BOCHG	I	2016/02/19	2016/02/19	1323779	1822249	4636955	US3134G83B38	2016/02/19	25.00000		REDEM	2015/11/19	2016/02/19	
BOCHG	I	2016/02/19	2016/02/19	1323780	1822250	4637653	US3134G83R89	2016/02/19	25.00000		REDEM	2015/11/19	2016/02/19	
BOCHG	I	2016/02/19	2016/02/19	1323781	1822251	4646265	US3134G8A587	2016/02/19	25.00000		REDEM	2015/11/19	2016/02/19	
BOCHG	I	2016/02/19	2016/02/19	1323782	1822284	4085151	XS0957236325	2016/02/19	100.00000		REDEM	2014/09/19	2016/02/19	
BOCHG	I	2016/02/19	2016/02/19	1323783	1822296	4207160	DE000WGZ7Q49	2016/02/19	75.00000		REDEM	2014/02/19	2016/02/19	
BOCHG	I	2016/02/19	2016/02/19	1323784	1822307	3977776	XS0887930641	2016/02/19	30.00000		REDEM	2013/02/19	2016/02/19	
BOCHG	I	2016/02/19	2016/02/19	1323785	1824165	4532701	XS1212273129	2016/02/19	1.50000		REDEM	2015/06/12	2016/02/19	
BOCHG	I	2016/02/19	2016/02/19	1323786	1824195	4582184	XS1222855964	2016/02/19	2.00000		REDEM	2015/08/19	2016/02/19	
BOCHG	I	2016/02/19	2016/02/19	1323787	1824805	4541362	XS1250027817	2016/02/19	5.00000		REDEM	2015/06/19	2016/02/19	
BOCHG	I	2016/02/19	2016/02/19	1323788	1807021	231174	XS0151584090	2016/02/19	10.00000	8.75000	REDEM	2015/08/19	2016/02/19	
BOCHG	I	2016/02/19	2016/02/19	1323789	1808526	238593	XS0216789700	2016/02/19	0.14583	0.14219	REDEM	2016/01/22	2016/02/19	
BOCHG	I	2016/02/19	2016/02/19	1323790	1820974	1839572	FR0010870949	2016/02/19	750.00000	596.15000	REDEM	2010/06/24	2016/02/19	
BOCHG	I	2016/02/19	2016/02/19	1323791	1820976	4067589	FR0011531631	2016/02/19	500.00000	282.80000	REDEM	2013/07/08	2016/02/19	
BOCHG	I	2016/02/19	2016/02/19	1323792	1820978	2124787	FR0010948240	2016/02/19	500.00000	371.30000	REDEM	2010/10/05	2016/02/19	
BOCHG	I	2016/02/19	2016/02/19	1323793	1820980	3911661	FR0011342740	2016/02/19	350.00000	272.10000	REDEM	2012/10/11	2016/02/19	
BOCHG	I	2016/02/19	2016/02/19	1323794	1820981	1758211	FR0010850701	2016/02/19	750.00000	452.65000	REDEM	2010/02/01	2016/02/19	
BOCHG	I	2016/02/19	2016/02/19	1323795	1821574	4450125	US3130A4F569	2016/02/19	59.00000	44.00000	REDEM	2015/03/11	2016/02/19	
BOCHG	I	2016/02/19	2016/02/19	1323796	1821651	1697763	BG2100013098	2016/02/19	6.00000	5.00000	REDEM	2015/08/19	2016/02/19	
BOCHG	I	2016/02/19	2016/02/19	1323797	1824153	4342767	ARBASE051130	2016/02/19	132.72600	88.48842	REDEM	2014/08/19	2016/02/19	
BOCHG	I	2016/02/19	2016/02/19	1323798	1825272	4384268	XS1122138214	2016/02/19	455.45660	435.64991	REDEM	2016/01/19	2016/02/19	
BOCHG	I	2016/02/19	2016/02/19	1323799	81327	4690350	US78012R5651	2016/02/19	13.28953		CONV		2016/02/19	
BOCHG	I	2016/02/19	2016/02/19	1323800	81560	4442183	XS1113871765	2016/02/19	0.60000		CONV	2015/12/15	2016/02/19	
BOCHG	I	2016/02/19	2016/02/19	1323801	81786	4437005	XS1165961308	2016/02/19	1.00000		CONV	2015/02/11	2016/02/19	
BOCHG	I	2016/02/19	2016/02/19	1323802	81789	4435215	XS1143999735	2016/02/19	1.28000		CONV	2015/02/09	2016/02/19	
BOCHG	I	2016/02/19	2016/02/19	1323803	81798	4440209	XS1165929834	2016/02/19	2.70000		CONV	2015/02/17	2016/02/19	
BOCHG	I	2016/02/19	2016/02/19	1323804	81802	4437471	XS1183199071	2016/02/19	130.00000		CONV	2015/02/12	2016/02/19	
BOCHG	I	2016/02/19	2016/02/19	1323805	81803	4327504	XS1061872310	2016/02/19	0.59000		CONV	2015/09/14	2016/02/19	
BOCHG	I	2016/02/19	2016/02/19	1323806	81806	4443658	XS1190300308	2016/02/19	2.00000		CONV	2015/02/16	2016/02/19	
BOCHG	I	2016/02/19	2016/02/19	1323807	81826	4441995	XS1169755136	2016/02/19	1.00865		CONV	2015/02/16	2016/02/19	
BOCHG	I	2016/02/19	2016/02/19	1323808	82287	4446092	XS1167402905	2016/02/19	10.00000		CONV	2015/02/19	2016/02/19	
BOCHG	I	2016/02/19	2016/02/19	1323809	81267	4315978	XS1092341178	2016/02/19	1.00000		CONV	2014/08/18	2016/02/19	
BOCHG	I	2016/02/19	2016/02/19	1323810	81268	4318615	XS1093807763	2016/02/19	0.60000		CONV	2014/08/18	2016/02/19	
BOCHG	I	2016/02/19	2016/02/19	1323811	81273	4438600	XS1143947346	2016/02/19	50.00000		CONV	2015/02/19	2016/02/19	
BOCHG	I	2016/02/19	2016/02/19	1323812	81274	4439739	XS1143948666	2016/02/19	90.00000		CONV	2015/02/19	2016/02/19	
BOCHG	I	2016/02/19	2016/02/19	1323813	81276	4441025	XS1162566902	2016/02/19	1.40000		CONV	2015/02/13	2016/02/19	
BOCHG	I	2016/02/19	2016/02/19	1323814	81279	4442637	XS1189562496	2016/02/19	75.00000		CONV	2015/02/19	2016/02/19	
BOCHG	I	2016/02/19	2016/02/19	1323815	81281	4445881	XS1061486434	2016/02/19	5.63000		CONV	2015/08/20	2016/02/19	
BOCHG	I	2016/02/19	2016/02/19	1323816	81283	4448783	XS1192755475	2016/02/19	8.00000		CONV	2015/02/19	2016/02/19	
BOCHG	I	2016/02/19	2016/02/19	1323817	81284	4450593	XS1061486517	2016/02/19	5.45000		CONV	2015/03/23	2016/02/19	
BOCHG	I	2016/02/19	2016/02/19	1323818	81285	4457484		2016/02/19	0.06800		CONV		2016/02/19	
BOCHG	I	2016/02/19	2016/02/19	1323819	81286	4464842		2016/02/19	0.35000		CONV		2016/02/19	
BOCHG	I	2016/02/19	2016/02/19	1323820	3662	4643454	XS1322528230	2016/02/19	750.00000	1140.00000	TRNCH	2015/11/19	2016/02/19	
BOCHG	I	2016/02/19	2016/02/19	1323821		2427661	XS0591604946	2016/02/16	222.22240	177.77760	REDEM	2015/08/13	2016/02/16	
BOCHG	I	2016/02/19	2016/02/19	1323822		583031	XS0298931287	2016/02/18	549.91900	548.72900	CORR	2016/01/21	2016/02/18	
BOCHG	I	2016/02/19	2016/02/19	1323823		1386469	XS0422754258	2016/02/18	1445.31000	1444.17800	CORR	2016/02/10	2016/02/18	
BOCHG	I	2016/02/19	2016/02/19	1323824		1849328	XS0498952679	2016/02/18	1237.27500	1237.17500	CORR	2016/02/08	2016/02/18	
BOCHG	I	2016/02/19	2016/02/19	1323825		1975060	XS0518180160	2016/02/18	137.29500	136.66500	CORR	2016/01/19	2016/02/18	
BOCHG	I	2016/02/19	2016/02/19	1323826		2023875	XS0525765557	2016/02/18	90.81000	90.22500	CORR	2016/01/19	2016/02/18	
BOCHG	I	2016/02/19	2016/02/19	1323827		3744516	XS0652913558	2016/02/18	285.71700	283.21700	CORR	2015/12/21	2016/02/18	
BOCHG	I	2016/02/19	2016/02/19	1323828		3589586	XS0752401470	2016/02/18	2.46300	2.41300	CORR	2015/08/26	2016/02/18	
BOCHG	I	2016/02/19	2016/02/19	1323829		3885729	XS0783935488	2016/02/18	436.99000	438.54000	CORR	2016/01/04	2016/02/18	
BOCHG	I	2016/02/19	2016/02/19	1323830		3884468	XS0818050162	2016/02/18	4.00000	3.00000	CORR	2015/08/18	2016/02/18	
BOCHG	I	2016/02/19	2016/02/19	1323831		3992656	XS0842609165	2016/02/18	1.51700	1.38200	CORR	2015/09/14	2016/02/18	
BOCHG	I	2016/02/19	2016/02/19	1323832		3969264	XS0876272096	2016/02/18	12.53000	11.63000	CORR	2015/12/08	2016/02/18	
BOCHG	I	2016/02/19	2016/02/19	1323833		4038160	XS0934609875	2016/02/18	1598.70200	1599.85200	CORR	2016/02/15	2016/02/18	
BOCHG	I	2016/02/19	2016/02/19	1323834		4043973	XS0938341780	2016/02/18	79.55300	78.15300	CORR	2016/02/15	2016/02/18	
BOCHG	I	2016/02/19	2016/02/19	1323835		4122279	XS0957442659	2016/02/18	8.12900	7.88600	CORR	2015/04/17	2016/02/18	
BOCHG	I	2016/02/19	2016/02/19	1323836		4180126	XS0988279435	2016/02/18	4.32800	4.32400	CORR	2016/02/17	2016/02/18	
BOCHG	I	2016/02/19	2016/02/19	1323837		4156128	XS0989394589	2016/02/18	1282.04700	1286.54700	CORR	2016/02/16	2016/02/18	
BOCHG	I	2016/02/19	2016/02/19	1323838		4668614	XS0996897491	2016/02/18	85.00000	83.00000	CORR	2015/12/10	2016/02/18	
BOCHG	I	2016/02/19	2016/02/19	1323839		4668622	XS0996918321	2016/02/18	4.00000	2.00000	CORR	2015/12/10	2016/02/18	
BOCHG	I	2016/02/19	2016/02/19	1323840		4178139	XS1014772310	2016/02/18	1637.30000	1613.30000	CORR	2016/02/17	2016/02/18	
BOCHG	I	2016/02/19	2016/02/19	1323841		4207043	XS1020483936	2016/02/18	41.76000	38.20000	CORR	2016/01/28	2016/02/18	
BOCHG	I	2016/02/19	2016/02/19	1323842		4189178	XS1021900094	2016/02/18	15.20000	14.63000	CORR	2016/02/17	2016/02/18	
BOCHG	I	2016/02/19	2016/02/19	1323843		3860280	XS0784739087	2016/02/18	0.10300	0.09600	CORR	2015/12/24	2016/02/18	
BOCHG	I	2016/02/19	2016/02/19	1323844		4006605	XS0839804357	2016/02/18	1.50000	0.90000	CORR	2013/04/11	2016/02/18	
BOCHG	I	2016/02/19	2016/02/19	1323845		4256020	XS1028956149	2016/02/18	1241.19800	1241.29800	CORR	2015/12/15	2016/02/18	
BOCHG	I	2016/02/19	2016/02/19	1323846		4010474	XS0909485475	2016/02/18	2.40000	2.00000	CORR	2015/12/17	2016/02/18	
BOCHG	I	2016/02/19	2016/02/19	1323847		4197654	XS1032779578	2016/02/18	3.39000	1.99000	CORR	2015/11/30	2016/02/18	
BOCHG	I	2016/02/19	2016/02/19	1323848		4324878	XS0939007828	2016/02/18	104.90000	65.60000	CORR	2014/10/30	2016/02/18	
BOCHG	I	2016/02/19	2016/02/19	1323849		4087083	XS0957135212	2016/02/18	1302.15900	1321.58400	CORR	2016/02/16	2016/02/18	
BOCHG	I	2016/02/19	2016/02/19	1323850		4088069	XS0960645785	2016/02/18	115.00000	68.30000	CORR	2013/08/29	2016/02/18	
BOCHG	I	2016/02/19	2016/02/19	1323851		4249326	XS1061386642	2016/02/18	1278.77400	1302.42000	CORR	2016/02/05	2016/02/18	
BOCHG	I	2016/02/19	2016/02/19	1323852		4118123	XS0975201947	2016/02/18	143.10000	96.70000	CORR	2013/10/30	2016/02/18	
BOCHG	I	2016/02/19	2016/02/19	1323853		4266871	XS1069235403	2016/02/18	2.20000	2.10000	CORR	2016/02/10	2016/02/18	
BOCHG	I	2016/02/19	2016/02/19	1323854		1789875	XS0485991417	2016/02/18	1503.14900	1498.55600	CORR	2016/01/20	2016/02/18	
BOCHG	I	2016/02/19	2016/02/19	1323855		4138591	XS0991474312	2016/02/18	59.20000	59.10000	CORR	2016/02/17	2016/02/18	
BOCHG	I	2016/02/19	2016/02/19	1323856		4256019	XS1028955927	2016/02/18	8.80200	8.70200	CORR	2015/12/15	2016/02/18	
BOCHG	I	2016/02/19	2016/02/19	1323857		4228181	XS1045116867	2016/02/18	1.00000	0.50000	CORR	2015/09/24	2016/02/18	
BOCHG	I	2016/02/19	2016/02/19	1323858		4293421	XS1080257600	2016/02/18	136.45000	137.55000	CORR	2015/02/26	2016/02/18	
BOCHG	I	2016/02/19	2016/02/19	1323859		4301408	XS1085735899	2016/02/18	2751.98400	2760.41400	CORR	2016/01/25	2016/02/18	
BOCHG	I	2016/02/19	2016/02/19	1323860		4285092	XS1077080577	2016/02/18	3.05000	2.55000	CORR	2015/09/22	2016/02/18	
BOCHG	I	2016/02/19	2016/02/19	1323861		4312034	XS1089413089	2016/02/18	570.89400	571.47400	CORR	2016/02/12	2016/02/18	
BOCHG	I	2016/02/19	2016/02/19	1323862		4301404	XS1085738729	2016/02/18	1748.01600	1739.58600	CORR	2016/01/22	2016/02/18	
BOCHG	I	2016/02/19	2016/02/19	1323863		4383703	XS1098397109	2016/02/18	1.25200	0.95200	CORR	2014/11/07	2016/02/18	
BOCHG	I	2016/02/19	2016/02/19	1323864		2160141	XS0551307100	2016/02/18	634.50000	632.46700	CORR	2015/12/14	2016/02/18	
BOCHG	I	2016/02/19	2016/02/19	1323865	1825638	1364705	CND100001B81	2016/02/18	1300.00000	1040.00000	REDEM	2009/02/18	2016/02/18	
BOCHG	I	2016/02/19	2016/02/19	1323866		4551393	XS1117299138	2016/02/18	5.81500	5.16000	CORR	2015/08/19	2016/02/18	
BOCHG	I	2016/02/19	2016/02/19	1323867		4395037	XS1147732553	2016/02/18	951.29100	950.29100	CORR	2015/10/28	2016/02/18	
BOCHG	I	2016/02/19	2016/02/19	1323868		4436293	XS1169741185	2016/02/18	0.35000	0.31000	CORR	2015/02/06	2016/02/18	
BOCHG	I	2016/02/19	2016/02/19	1323869		4445858	XS1191130753	2016/02/18	367.27400	369.09900	CORR	2016/02/12	2016/02/18	
BOCHG	I	2016/02/19	2016/02/19	1323870		4456383	XS1192082896	2016/02/18	8.24500	6.97000	CORR	2015/02/26	2016/02/18	
BOCHG	I	2016/02/19	2016/02/19	1323871		4693611	XS1192940457	2016/02/18	0.30000	0.20000	CORR	2015/02/20	2016/02/18	
BOCHG	I	2016/02/19	2016/02/19	1323872		4449144	XS1193304240	2016/02/18	0.65000	0.50000	CORR	2015/02/23	2016/02/18	
BOCHG	I	2016/02/19	2016/02/19	1323873	1825669	4090996	IT0001357372	2016/02/18	0.93218	0.82165	REDEM	2015/08/18	2016/02/18	
BOCHG	I	2016/02/19	2016/02/19	1323874	1825673	3939441	IT0001430724	2016/02/18	0.37513	0.33636	REDEM	2015/08/18	2016/02/18	
BOCHG	I	2016/02/19	2016/02/19	1323875		4456434	XS1198255397	2016/02/18	5.00000	2.57000	CORR	2015/03/16	2016/02/18	
BOCHG	I	2016/02/19	2016/02/19	1323876	1825676	385383	AT0000438643	2016/02/17	30.00000		REDEM	2004/06/11	2016/02/17	
BOCHG	I	2016/02/19	2016/02/19	1323877	1825677	603339	AT0000438650	2016/02/17	10.00000		REDEM	2015/09/07	2016/02/17	
BOCHG	I	2016/02/19	2016/02/19	1323878		3960894	XS0874014722	2016/02/18	1417.71900	1422.65000	CORR	2016/02/16	2016/02/18	
BOCHG	I	2016/02/19	2016/02/19	1323879	1825678	603351	AT0000438668	2016/02/17	40.00000		REDEM	2004/06/11	2016/02/17	
BOCHG	I	2016/02/19	2016/02/19	1323880	1825679	740613	AT000B054846	2016/02/17	85.00000		REDEM	2008/08/29	2016/02/17	
BOCHG	I	2016/02/19	2016/02/19	1323881		4576339	XS1272831501	2015/08/12	100.00000	150.00000	CLEAN	2015/08/11	2015/08/11	
BOCHG	I	2016/02/19	2016/02/19	1323882		4576339	XS1272831501	2016/02/11	150.00000	100.00000	CORR	2015/08/11	2016/02/11	
BOCHG	I	2016/02/19	2016/02/19	1323883	1825680	760946	AT000B055363	2016/02/17	4.50000		REDEM	2015/09/07	2016/02/17	
BOCHG	I	2016/02/19	2016/02/19	1323884	1825681	841787	AT000B055942	2016/02/17	1.00000		REDEM	2015/09/07	2016/02/17	
BOCHG	I	2016/02/19	2016/02/19	1323885	1825682	3648699	AT000B114988	2016/02/17	6.00000		REDEM	2012/03/20	2016/02/17	
BOCHG	I	2016/02/19	2016/02/19	1323886		4001105	XS0903269370	2016/02/18	461.32100	459.47900	CORR	2016/02/09	2016/02/18	
BOCHG	I	2016/02/19	2016/02/19	1323887		4441505	XS1187065443	2016/02/17	960.02800	954.42800	CORR	2016/01/29	2016/02/17	
BOCHG	I	2016/02/19	2016/02/19	1323888		4638708	IT0005136814	2015/10/23	15.00000	20.00000	CORR	2015/10/22	2015/10/22	
BOCHG	I	2016/02/19	2016/02/19	1323889		4441505	XS1187065443	2016/02/18	954.42800	952.92100	CORR	2016/02/17	2016/02/18	
BOCHG	I	2016/02/19	2016/02/19	1323890		4465104	XS1202910763	2016/02/18	157.63000	157.53000	CORR	2015/08/04	2016/02/18	
BOCHG	I	2016/02/19	2016/02/19	1323891		4510392	XS1234270921	2016/02/18	428.23000	428.43000	CORR	2016/02/16	2016/02/18	
BOCHG	I	2016/02/19	2016/02/19	1323892		4631145	XS1237841546	2016/02/18	215.00000	155.00000	CORR	2016/01/12	2016/02/18	
BOCHG	I	2016/02/19	2016/02/19	1323893		4528493	XS1245432742	2016/02/18	1240.17500	1246.88300	CORR	2016/02/16	2016/02/18	
BOCHG	I	2016/02/19	2016/02/19	1323894		4598590	XS1288049353	2016/02/18	10.00000	8.00000	CORR	2015/09/15	2016/02/18	
BOCHG	I	2016/02/19	2016/02/19	1323895		4536841	XS1246886557	2016/02/18	4.52300	3.20800	CORR	2015/06/23	2016/02/18	
BOCHG	I	2016/02/19	2016/02/19	1323896		4573127	XS1269754146	2016/02/18	12.50000	10.00000	CORR	2015/08/10	2016/02/18	
BOCHG	I	2016/02/19	2016/02/19	1323897		4706685	XS1369250755	2016/02/19	10.00000	1000.00000	CORR	2016/02/23	2016/02/23	
BOCHG	I	2016/02/19	2016/02/19	1323898		4706681	XS1369280315	2016/02/19	100.00000	1250.00000	CORR	2016/02/23	2016/02/23	
BOCHG	I	2016/02/19	2016/02/19	1323899		4655250	XS1273435781	2016/02/19	0.01000	0.01000	CORR	2016/02/18	2016/03/18	
BOCHG	I	2016/02/19	2016/02/19	1323901		4704389	US3136G2ZE04	2016/02/19	20.00000	25.00000	CORR	2016/02/26	2016/02/26	
BOCHG	I	2016/02/19	2016/02/19	1323900		4617036	GB00BWY4ZL77	2016/02/18	1.29819	1.59819	REISS	2015/11/23	2016/02/18	Issue of Additional Securities<BR><BR>Apollo Commercial Property Plc announces its issue of additional securities.<BR>Apollo Commercial Property PLC Issue of Debentures The Directors of Apollo Commercial Property Plc are delighted to announce that subject to the Offer of up to 23,500,000 5.0% Bonds 2025 of GBP1 per unit nominal value the board has resolved to issue a further 300,000 Debenture Units for a total of GBP300,000. This takes the total issued to date to 1,598,190 Debenture Units for GBP1,598,190. <BR>The listing and subsequent trading of the 300,000 Debenture Units is subject to approval by the Cyprus Stock Exchange. <BR>The Directors of the Issuer accept responsibility for the contents of this announcement. <BR>
BOCHG	I	2016/02/19	2016/02/19	1323902		4706012	XS1368698251	2016/02/19	1.00000	1750.00000	CORR	2016/02/22	2016/02/22	
BOCHG	I	2016/02/19	2016/02/19	1323903		4478955	PL0000108601	2016/02/22	11631.92900	13698.92900	REISS	2016/02/01	2016/02/22	
BOCHG	I	2016/02/19	2016/02/19	1323904		4469750	GB00BVZCLX75	2016/02/18	6.19095	6.69095	REISS	2016/01/21	2016/02/18	Issue of Additional Securities<BR>Aegis Power Bond (No.1) Plc announces the issue of additional securities.<BR>AEGIS POWER BOND (NO.1) PLC Issue of Debentures <BR>The Directors of Aegis Power Bond (No.1) Plc are delighted to announce that subject to the Offer of up to 10,000,000 10% 2025 Debentures of GBP1 per unit nominal value, the Board has resolved to issue a further 500,000 Debenture Units for a total of GBP500,000. This takes the total issued to date to 6,690,959 Debenture Units for GBP6,690,959. <BR>The listing and subsequent trading of the 500,000 Debenture Units is subject to approval by the Cyprus Stock Exchange.<BR> The Directors of the Issuer accept responsibility for the contents of this announcement<BR>
BOCHG	I	2016/02/19	2016/02/19	1323905		4623341	PL0000108916	2016/02/22	21655.30900	26798.29300	REISS	2016/01/11	2016/02/22	
BOCHG	I	2016/02/19	2016/02/19	1323906		4371037	NZLGFDT006C6	2016/02/22	475.00000	495.00000	REISS	2015/12/14	2016/02/22	
BOCHG	I	2016/02/19	2016/02/19	1323907		4666943		2016/02/16	1999999.80000	2199999.80000	REISS	2016/02/09	2016/02/16	
BOCHG	I	2016/02/19	2016/02/19	1323908	82322	2215407	USU76015AC77	2011/06/09	300.00000		CONV	2010/11/02	2011/06/09	
BOCHG	I	2016/02/19	2016/02/19	1323909		4684119	DE0001102390	2016/02/17	5000.00000	10000.00000	REISS	2016/01/15	2016/02/17	
BOCHG	I	2016/02/19	2016/02/19	1323910		4244079	XS1056560763	2016/02/18	777.52100	776.78200	CORR	2016/02/02	2016/02/18	
BOCHG	I	2016/02/19	2016/02/19	1323911		4703851	US3136G2Z676	2016/02/19	15.00000	30.00000	CORR	2016/02/22	2016/02/22	
BOCHG	I	2016/02/19	2016/02/19	1323912		4517316		2016/02/17	805.00000	1505.00000	REISS	2016/02/03	2016/02/17	(As on 17/02/2016)<BR><BR>Instrument  Code  : LTBS00516-0017<BR>Duration (Days) :91<BR>Issued Amount  (Millions of VEF) : 700<BR>Issue Date : 17/02/2016<BR>Maturity Date : 18/05/2016<BR>Par Value : 5 000<BR>Interest basis : ZERO COUPON<BR>Interest accrual convention : ACTUAL/360<BR>Prices (%)  <BR>Minimum  : 983673 <BR>Issue Price :NA <BR>yield 65662    <BR>
BOCHG	I	2016/02/19	2016/02/19	1323913		4630175	XS1309493630	2016/02/18	399.82400	399.00200	CORR	2016/02/16	2016/02/18	
BOCHG	I	2016/02/19	2016/02/19	1323914		4699007	XS1358936331	2016/02/17	0.12100	0.25000	CORR	2016/02/12	2016/02/17	
BOCHG	I	2016/02/19	2016/02/19	1323915		4699037	XS1358937578	2016/02/17	0.10000	0.25000	CORR	2016/02/12	2016/02/17	
BOCHG	I	2016/02/19	2016/02/19	1323916		4699003	XS1358936257	2016/02/17	0.10000	0.25000	CORR	2016/02/12	2016/02/17	
BOCHG	I	2016/02/19	2016/02/19	1323917		4631686	XS1313004928	2016/02/18	644.34600	634.34600	CORR	2016/02/15	2016/02/18	
BOCHG	I	2016/02/19	2016/02/19	1323918		4699031	XS1358937149	2016/02/17	0.14500	0.25000	CORR	2016/02/12	2016/02/17	
BOCHG	I	2016/02/19	2016/02/19	1323919		4708009	ES02136796X9	2016/02/17	4.95000	0.49500	CORR	2015/02/10	2016/02/17	
BOCHG	I	2016/02/19	2016/02/19	1323920		4699017	XS1358936760	2016/02/17	0.15500	0.25000	REISS	2016/02/12	2016/02/17	
BOCHG	I	2016/02/19	2016/02/19	1323921	69406	4324451	USU74900AK47	2014/12/05	400.00000	0.23700	CONV	2014/08/21	2014/12/05	
BOCHG	I	2016/02/19	2016/02/19	1323922	1825691	4350303	XS1113321001	2016/02/17	10.70000	3.55000	REDEM	2015/02/09	2016/02/17	
BOCHG	I	2016/02/19	2016/02/19	1323923		4287409	XS1076957700	2016/02/18	1901.46500	1905.46500	CORR	2016/02/16	2016/02/18	
BOCHG	I	2016/02/19	2016/02/19	1323925	82323	4324561	US747262AV51	2014/12/05	400.00000	0.23700	CONV	2014/08/21	2014/12/05	
BOCHG	I	2016/02/19	2016/02/19	1323926		4704289	US3136G2Z262	2016/02/19	55.00000	70.00000	CORR	2016/02/26	2016/02/26	
BOCHG	I	2016/02/19	2016/02/19	1323927		4698381	US3136G2XK81	2016/02/19	85.00000	115.00000	CORR	2016/02/26	2016/02/26	
BOCHG	I	2016/02/19	2016/02/19	1323928		4447493	LT0000821654	2015/02/11	0.15800	0.10250	CORR	2015/02/10	2015/02/10	
BOCHG	I	2016/02/19	2016/02/19	1323929	1825692	4447493	LT0000821654	2016/01/27	0.10250		REDEM	2015/02/10	2016/01/27	
BOCHG	I	2016/02/19	2016/02/19	1323930		4702049	XS1290002796	2016/02/19	1.00000	1.15000	CORR	2016/02/18	2016/02/18	
BOCHG	I	2016/02/19	2016/02/19	1323931		4702055	XS1290021077	2016/02/19	2.00000	1.80000	CORR	2016/02/18	2016/02/18	
BOCHG	D	2010/04/20	2016/02/19	241314		1363530	XS0418831979	2010/04/01	33.60000	15.00000	CORR	2010/03/31	2010/03/31	
BOCHG	D	2011/05/30	2016/02/19	383935		274847	FR0000570954	2011/04/30	18.75261	20.59411	CORR	2010/01/25	2011/04/30	
BOCHG	D	2012/03/01	2016/02/19	488813		274847	FR0000570954	2011/12/31	20.59411	22.61646	CORR	2011/04/30	2011/12/31	
BOCHG	D	2013/06/12	2016/02/19	751900		274847	FR0000570954	2013/04/30	22.61646	24.83739	CORR	2011/12/31	2013/04/30	
BOCHG	D	2014/01/20	2016/02/19	861708		1295035	IL0025902557	2014/01/19	1122.33721	1329.80291	CORR	2014/01/13	2014/01/19	
BOCHG	D	2014/07/03	2016/02/19	951968		1295035	IL0025902557	2014/07/01	1329.80291	1227.51038	CORR	2014/01/19	2014/07/01	1,227,510,382
BOCHG	D	2015/01/03	2016/02/19	1059072		1295035	IL0025902557	2015/01/01	1227.51038	1125.21785	CORR	2014/07/01	2015/01/01	1,125,217,851
BOCHG	D	2015/04/18	2016/02/19	1129602		4456106	XS1169771505	2015/04/15	23.94300	24.94300	CORR	2015/03/10	2015/04/15	
BOCHG	D	2015/07/03	2016/02/19	1181065		1295035	IL0025902557	2015/07/01	1125.21785	1022.92569	CORR	2015/01/01	2015/07/01	
BOCHG	D	2015/07/30	2016/02/19	1199136		4476550	XS1212470972	2015/07/22	589.19500	587.19500	CORR	2015/07/10	2015/07/22	
BOCHG	D	2015/10/02	2016/02/19	1241488		274847	FR0000570954	2015/08/31	24.83739	29.95498	CORR	2013/04/30	2015/08/31	As on 3/09/2015<BR>---------------------------<BR>ISIN Code                 Bond                                                                           Outstanding (EUR)<BR>FR0000570954       OAT cap. 9.82% 31 December 2019                    29,954,975
BOCHG	D	2015/11/30	2016/02/19	1275178		4580522	XS1277066202	2015/11/23	200.00000	130.00000	CORR	2015/08/17	2015/11/23	
BOCHG	D	2015/12/04	2016/02/19	1278357		4411598	XS1143694625	2015/11/25	14.06400	11.51400	CORR	2015/04/27	2015/11/25	
BOCHG	I	2016/02/19	2016/02/19	1323953		4697567	MXLDGO0002Y5	2016/02/18	6016.00200	10516.00200	REISS	2016/02/12	2016/02/18	
BOCHG	D	2015/12/14	2016/02/19	1283728		2511085	XS0592445232	2015/12/10	10.82500	9.32500	CORR	2015/11/25	2015/12/10	
BOCHG	D	2015/12/23	2016/02/19	1291357	1787029	3901634	XS0826174269	2015/12/18	8.59336		REDEM	2015/09/18	2015/12/18	
BOCHG	D	2015/12/30	2016/02/19	1294892		4115484	XS0975638882	2015/12/23	1500.00000	1408.30000	CORR	2013/10/01	2015/12/23	
BOCHG	D	2016/01/05	2016/02/19	1297711		1295035	IL0025902557	2016/01/03	1022.92569	920.63326	CORR	2015/07/01	2016/01/03	
BOCHG	D	2016/01/11	2016/02/19	1301630		1887006	XS0501195134	2016/01/07	1930.64597	1930.64597	CORR	2016/01/06	2016/01/07	
BOCHG	I	2016/02/19	2016/02/19	1323961		1892009	XS0505478684	2016/02/10	458.31000	452.25200	CORR	2015/03/03	2016/02/10	
BOCHG	D	2016/01/16	2016/02/19	1305321		4114757	XS0975260448	2015/12/07	1.00000	0.10500	CORR	2013/10/02	2015/12/07	
BOCHG	D	2016/01/28	2016/02/19	1312247		1665510	XS0468534580	2016/01/27	2071.43600	2069.93600	CORR	2016/01/25	2016/01/27	
BOCHG	D	2016/02/01	2016/02/19	1314756		274847	FR0000570954	2015/12/31	29.95498	32.89655	CORR	2015/08/31	2015/12/31	
BOCHG	I	2016/02/19	2016/02/19	1323993		274847	FR0000570954	1990/03/29	18.75261	19.32000	CORR	2010/01/25	1990/03/28	As on 15/02/2016<BR><BR>9660 bonds issued - 19 320 000 F<BR>Issue date 28/03/1990<BR>
BOCHG	D	2016/02/04	2016/02/19	1316186		4104213	XS0970421367	2016/02/02	1196.53600	1178.93600	CORR	2015/10/01	2016/02/02	
BOCHG	D	2016/02/04	2016/02/19	1316207		4496996	XS1183618906	2016/02/02	2.90000	2.88500	CORR	2016/01/21	2016/02/02	
BOCHG	D	2016/02/05	2016/02/19	1316933		1665510	XS0468534580	2016/02/04	2069.93600	2069.08600	CORR	2016/01/27	2016/02/04	
BOCHG	D	2016/02/08	2016/02/19	1317882		4631260	XS1312891549	2016/02/02	1250.00000	1146.70200	CORR	2015/10/29	2016/02/02	
BOCHG	D	2016/02/09	2016/02/19	1318402		4228909	XS1049699926	2016/02/08	1256.97700	1251.97700	CORR	2016/02/04	2016/02/08	
BOCHG	D	2016/02/09	2016/02/19	1318407		4300472	XS1084942470	2016/02/08	577.00000	576.90000	CORR	2016/01/18	2016/02/08	
BOCHG	D	2016/02/10	2016/02/19	1318937		1665510	XS0468534580	2016/02/09	2069.08600	2067.48600	CORR	2016/02/04	2016/02/09	
BOCHG	D	2016/02/13	2016/02/19	1320771		3509374	XS0743596040	2016/02/12	1500.00000	1053.96500	CORR	2012/09/11	2016/02/12	
BOCHG	D	2016/02/15	2016/02/19	1321550		4564761	XS1268048060	2016/02/08	2000.00000	2900.00000	CORR	2015/08/07	2016/02/08	
BOCHG	D	2016/02/16	2016/02/19	1322188		4526276	XS1244682057	2016/02/15	163.43767	161.90267	CORR	2016/02/11	2016/02/15	
BOCHG	D	2016/02/16	2016/02/19	1322189		4526266	XS1244682487	2016/02/15	736.03822	735.94922	CORR	2016/02/12	2016/02/15	
BOCHG	D	2016/02/16	2016/02/19	1322210		4228909	XS1049699926	2016/02/15	1251.97700	1250.54700	CORR	2016/02/08	2016/02/15	
BOCHG	D	2016/02/16	2016/02/19	1322221		3741964	XS0774764152	2016/02/15	565.14100	562.27900	CORR	2015/11/02	2016/02/15	
BOCHG	I	2016/02/19	2016/02/19	1323954		4645335	IT0005143265	2015/11/18	3.00000	2.82000	CORR	2015/11/17	2015/11/17	
BOCHG	D	2016/02/17	2016/02/19	1322655		4342364	XS1107549906	2016/02/16	8.29000	8.19000	CORR	2014/10/07	2016/02/16	
BOCHG	D	2016/02/17	2016/02/19	1322657		4382045	XS1137260086	2016/02/16	102.30000	102.20000	CORR	2016/01/25	2016/02/16	
BOCHG	D	2016/02/17	2016/02/19	1322669		4266512	XS1037603054	2016/02/16	19.00000	18.50000	CORR	2015/08/24	2016/02/16	
BOCHG	D	2016/02/17	2016/02/19	1322708		4114644	XS0969864916	2016/02/16	1000.00000	730.71700	CORR	2013/09/26	2016/02/16	
BOCHG	D	2016/02/17	2016/02/19	1322709		4439169	XS1149282912	2016/02/16	0.58500	0.33500	CORR	2015/02/03	2016/02/16	
BOCHG	D	2016/02/17	2016/02/19	1322711		4114757	XS0975260448	2016/02/16	0.10500	0.05500	CORR	2015/12/07	2016/02/16	
BOCHG	D	2016/02/17	2016/02/19	1322712		4511783	XS1190231149	2016/02/16	7.45900	7.43600	CORR	2015/12/15	2016/02/16	
BOCHG	D	2016/02/17	2016/02/19	1322721		4531878	XS1212260811	2016/02/16	4.39800	4.29800	CORR	2015/06/17	2016/02/16	
BOCHG	D	2016/02/17	2016/02/19	1322722		4537577	XS1228162738	2016/02/16	1.35000	1.25000	CORR	2015/06/16	2016/02/16	
BOCHG	D	2016/02/17	2016/02/19	1322737		4437464	XS1183113379	2016/02/16	0.50000	0.25000	CORR	2015/02/11	2016/02/16	
BOCHG	D	2016/02/18	2016/02/19	1323258		4117334	XS0976364272	2016/02/17	1.19000	0.89000	CORR	2015/04/09	2016/02/17	
BOCHG	D	2016/02/18	2016/02/19	1323264		737798	XS0336419154	2016/02/17	0.25000	0.24500	CORR	2008/01/15	2016/02/17	
BOCHG	D	2016/02/18	2016/02/19	1323270		4264283	XS1067544624	2016/02/17	1.70000	1.50000	CORR	2014/05/23	2016/02/17	
BOCHG	D	2016/02/18	2016/02/19	1323274		4336445	XS1099681535	2016/02/17	1.75000	1.45000	CORR	2014/11/20	2016/02/17	
BOCHG	D	2016/02/18	2016/02/19	1323297		4099323	XS0964442494	2016/02/17	2.57000	2.37000	CORR	2013/08/27	2016/02/17	
BOCHG	D	2016/02/18	2016/02/19	1323298		4371799	XS1130088658	2016/02/17	50.00000	40.00000	CORR	2014/10/29	2016/02/17	
BOCHG	D	2016/02/18	2016/02/19	1323305		4218769	XS1015495937	2016/02/17	4.27413	3.57413	CORR	2015/08/14	2016/02/17	
BOCHG	D	2016/02/18	2016/02/19	1323307		4229666	XS1038297476	2016/02/17	7.71000	7.70200	CORR	2014/03/28	2016/02/17	
BOCHG	D	2016/02/18	2016/02/19	1323320		4451362	XS1133631777	2016/02/17	5.75000	5.65000	CORR	2015/02/26	2016/02/17	
BOCHG	D	2016/02/18	2016/02/19	1323479		1992572	XS0525827845	2016/02/16	1163.37100	1162.11100	CORR	2016/01/22	2016/02/16	
BOCHG	I	2016/02/19	2016/02/19	1323932	1825693	2994159	AT0000348321	2013/12/15	23.00000		REDEM	2003/12/15	2013/12/15	
BOCHG	I	2016/02/19	2016/02/19	1323933		4564382	XS1262167429	2016/02/16	34.05000	33.70000	CORR	2016/01/12	2016/02/16	
BOCHG	I	2016/02/19	2016/02/19	1323934		4702714	XS1317175393	2016/02/18	1.40000	1.50000	CORR	2016/02/17	2016/02/18	
BOCHG	I	2016/02/19	2016/02/19	1323935		4021614	XS0919504562	2016/02/16	1500.00000	1302.40800	CORR	2013/04/24	2016/02/16	
BOCHG	I	2016/02/19	2016/02/19	1323936		4545026	XS1251077373	2016/02/18	33.91800	33.61800	CORR	2015/10/29	2016/02/18	
BOCHG	I	2016/02/19	2016/02/19	1323937		3749831	XS0776179656	2016/02/16	1411.43800	1405.63400	CORR	2015/04/07	2016/02/16	
BOCHG	I	2016/02/19	2016/02/19	1323938		4653896	MXIMBP0600V7	2016/02/18	15600.00000	16900.00000	REISS	2016/02/11	2016/02/18	
BOCHG	I	2016/02/19	2016/02/19	1323939		4676170	MXIQBP070139	2016/02/18	9100.00000	10400.00000	REISS	2016/02/11	2016/02/18	
BOCHG	I	2016/02/19	2016/02/19	1323940		4607022	MXISBP040155	2016/02/18	24200.00000	25300.00000	REISS	2016/02/11	2016/02/18	
BOCHG	I	2016/02/19	2016/02/19	1323941		4148580	XS0995679619	2016/02/16	1000.00000	875.37900	CORR	2013/12/03	2016/02/16	
BOCHG	I	2016/02/19	2016/02/19	1323942		4123288	XS0981932279	2016/02/16	871.13500	870.35500	CORR	2016/01/12	2016/02/16	
BOCHG	I	2016/02/19	2016/02/19	1323943		4125654	XS0954674312	2016/02/16	750.00000	447.22500	CORR	2013/10/21	2016/02/16	
BOCHG	I	2016/02/19	2016/02/19	1323944		3866181	XS0800346362	2016/02/16	427.52100	423.51500	CORR	2015/10/15	2016/02/16	
BOCHG	I	2016/02/19	2016/02/19	1323945		481952	XS0240295658	2016/02/16	56.16500	54.86000	CORR	2015/11/06	2016/02/16	
BOCHG	I	2016/02/19	2016/02/19	1323946		4624053	MX0MGO0000Y4	2016/02/18	37446.26860	45446.26860	REISS	2016/02/17	2016/02/18	
BOCHG	I	2016/02/19	2016/02/19	1323947		4708245	SA136FK0GDJ5	2015/06/30	1.90000	1.06400	CORR	2012/12/18	2015/06/30	
BOCHG	I	2016/02/19	2016/02/19	1323948		4708245	SA136FK0GDJ5	2015/12/31	1.06400	0.79800	CORR	2015/06/30	2015/12/31	
BOCHG	I	2016/02/19	2016/02/19	1323949		4570355	XS1267954755	2016/02/18	8.16800	7.02100	CORR	2015/11/20	2016/02/18	
BOCHG	I	2016/02/19	2016/02/19	1323950		4439025	CA66989ZEN48	2016/02/12	125.00000	200.00000	REISS	2015/02/06	2016/02/12	
BOCHG	I	2016/02/19	2016/02/19	1323951		4281451	US64455QAA67	2014/11/15	135.00000	143.37000	CORR	2014/05/09	2014/11/15	
BOCHG	I	2016/02/19	2016/02/19	1323952		4666808	JP1051261FC7	2016/02/22	5155000.00000	7689000.00000	REISS	2016/01/21	2016/02/22	
BOCHG	I	2016/02/19	2016/02/19	1323955		4129219	XS0983942656	2016/02/11	158.25325	157.27484	CORR	2016/01/28	2016/02/11	
BOCHG	I	2016/02/19	2016/02/19	1323956		4678181	IT0005155996	2015/12/16	10.00000	5.52100	CORR	2015/12/15	2015/12/15	
BOCHG	I	2016/02/19	2016/02/19	1323957		4291643	XS0873779200	2016/02/11	56.30800	29.90100	CORR	2014/12/01	2016/02/11	
BOCHG	I	2016/02/19	2016/02/19	1323958		2136166	XS0549116290	2016/02/10	1000.00000	806.78200	CORR	2010/10/19	2016/02/10	
BOCHG	I	2016/02/19	2016/02/19	1323959		4678186	IT0005156002	2015/12/16	30.00000	15.60200	CORR	2015/12/15	2015/12/15	
BOCHG	I	2016/02/19	2016/02/19	1323960		2025409	XS0527351653	2016/02/10	2379.30100	2365.12100	CORR	2016/01/27	2016/02/10	
BOCHG	I	2016/02/19	2016/02/19	1323962		1509772	XS0380056183	2016/02/10	500.00000	366.24400	CORR	2008/07/31	2016/02/10	
BOCHG	I	2016/02/19	2016/02/19	1323963		606281	XS0304273948	2016/02/10	500.00000	459.55800	CORR	2007/06/07	2016/02/10	
BOCHG	I	2016/02/19	2016/02/19	1323964		4314516	XS1028948716	2016/02/09	213.58203	222.98127	CORR	2015/08/06	2016/02/09	
BOCHG	I	2016/02/19	2016/02/19	1323965		4702048	XS1290002879	2016/02/19	2.00000	1.30000	CORR	2016/02/18	2016/02/18	
BOCHG	I	2016/02/19	2016/02/19	1323966		4701541	XS1290003257	2016/02/19	2.00000	1.30000	CORR	2016/02/18	2016/02/18	
BOCHG	I	2016/02/19	2016/02/19	1323967		3875235	XS0809571739	2016/02/09	1000.00000	727.29800	CORR	2012/07/26	2016/02/09	
BOCHG	I	2016/02/19	2016/02/19	1323968	3749	4630562	XS1312135905	2015/12/23	350.00000	400.00000	TRNCH	2015/10/29	2015/12/23	
BOCHG	I	2016/02/19	2016/02/19	1323969	1825698	4192120	FR0011297837	2016/02/19	30.00000		REDEM	2012/08/08	2016/02/19	
BOCHG	I	2016/02/19	2016/02/19	1323970		4439285	XS1162217308	2016/02/18	12.78600	12.76200	CORR	2015/03/13	2016/02/18	
BOCHG	I	2016/02/19	2016/02/19	1323971		4468473	XS1205619288	2016/02/17	1418.12400	1416.20000	CORR	2015/08/05	2016/02/17	
BOCHG	I	2016/02/19	2016/02/19	1323972	1825699	1290519	USG6954PAL43	2015/02/19	100.00000		REDEM	1999/04/08	2015/02/19	
BOCHG	I	2016/02/19	2016/02/19	1323973		4435924	XS1163232900	2016/02/09	500.00000	475.80500	CORR	2015/02/04	2016/02/09	
BOCHG	I	2016/02/19	2016/02/19	1323974		4286831	XS1075833860	2016/02/09	281.50000	281.27900	CORR	2015/10/08	2016/02/09	
BOCHG	I	2016/02/19	2016/02/19	1323975	1825702	4367830	XS1125319985	2016/02/19	50.00000		REDEM	2014/10/17	2016/02/19	
BOCHG	I	2016/02/19	2016/02/19	1323976		4631260	XS1312891549	2016/02/17	1250.00000	1164.53200	CORR	2015/10/29	2016/02/17	
BOCHG	I	2016/02/19	2016/02/19	1323977		4327816	XS1061872823	2016/02/09	15.00000	8.72015	CORR	2014/08/28	2016/02/09	
BOCHG	I	2016/02/19	2016/02/19	1323978		4526276	XS1244682057	2016/02/17	163.43767	163.37667	CORR	2016/02/11	2016/02/17	
BOCHG	I	2016/02/19	2016/02/19	1323979		4185980	XS1023613265	2016/02/09	4465.65000	4463.15000	CORR	2015/02/04	2016/02/09	
BOCHG	I	2016/02/19	2016/02/19	1323980		4476550	XS1212470972	2016/02/17	589.19500	591.69500	CORR	2015/07/10	2016/02/17	
BOCHG	I	2016/02/19	2016/02/19	1323981		3251509	XS0701688128	2016/02/17	457.52400	454.53400	CORR	2014/12/03	2016/02/17	
BOCHG	I	2016/02/19	2016/02/19	1323982		3305566	IL0011212276	2016/02/17	283.58876	350.80676	REISS	2014/11/03	2016/02/17	
BOCHG	I	2016/02/19	2016/02/19	1323983		4030790	XS0927637818	2016/02/12	1725.23400	1719.13400	CORR	2016/01/26	2016/02/12	
BOCHG	I	2016/02/19	2016/02/19	1323984		4164880	IL0069401599	2016/02/18	286.40590	277.30635	CORR	2016/02/15	2016/02/18	
BOCHG	I	2016/02/19	2016/02/19	1323985		647704	XS0203891840	2016/02/11	256.37600	255.32700	CORR	2015/11/25	2016/02/11	
BOCHG	I	2016/02/19	2016/02/19	1323986		4560696	XS1263139856	2016/02/15	1190.86700	1202.26900	CORR	2015/11/20	2016/02/15	
BOCHG	I	2016/02/19	2016/02/19	1323987		4361212	XS1120709826	2016/02/10	819.56200	817.26600	CORR	2016/02/05	2016/02/10	
BOCHG	I	2016/02/19	2016/02/19	1323988	1825718	616091	XS0305644485	2016/02/16	48.00733	20.45559	REDEM	2015/08/17	2016/02/16	
BOCHG	I	2016/02/19	2016/02/19	1323989		4001218	XS0905659669	2016/02/10	69.08700	66.23300	CORR	2015/05/18	2016/02/10	
BOCHG	I	2016/02/19	2016/02/19	1323990		3961226	XS0875267394	2016/02/10	542.16300	539.16800	CORR	2015/01/15	2016/02/10	
BOCHG	I	2016/02/19	2016/02/19	1323991	1825721	1359711	US41162DAD12	2016/02/19	244.88077	238.41236	REDEM	2015/11/19	2016/02/19	
BOCHG	I	2016/02/19	2016/02/19	1323992		4656224		2016/02/18	17000.00000	17000.00000	CORR	2016/01/18	2016/02/18	
BOCHG	I	2016/02/19	2016/02/19	1323994		274847	FR0000570954	2011/04/30	19.32000	20.59411	CORR	1990/03/28	2011/04/30	
BOCHG	I	2016/02/19	2016/02/19	1323995		274847	FR0000570954	2011/12/31	20.59411	22.61646	CORR	2011/04/30	2011/12/31	
BOCHG	I	2016/02/19	2016/02/19	1323996		274847	FR0000570954	2013/04/30	22.61646	24.83739	CORR	2011/12/31	2013/04/30	
BOCHG	I	2016/02/19	2016/02/19	1323997		274847	FR0000570954	2015/08/31	24.83739	29.95498	CORR	2013/04/30	2015/08/31	As on 3/09/2015<BR>---------------------------<BR>ISIN Code                 Bond                                                                           Outstanding (EUR)<BR>FR0000570954       OAT cap. 9.82% 31 December 2019                    29,954,975
BOCHG	I	2016/02/19	2016/02/19	1323998		274847	FR0000570954	2015/12/31	29.95498	32.89655	CORR	2015/08/31	2015/12/31	
BOCHG	I	2016/02/19	2016/02/19	1323999	1825723	4230475	KR35442272B5	2016/02/15	90000.00000	75600.00000	REDEM	2012/11/15	2016/02/15	
BOCHG	I	2016/02/19	2016/02/19	1324000	1825724	3819336	KR3544067258	2016/02/15	70000.00000	65800.00000	REDEM	2012/05/15	2016/02/15	
BOCHG	I	2016/02/19	2016/02/19	1324001	1825726	4688131	TH0623B7Q283	2016/02/17	5000.00000		REDEM	2016/01/20	2016/02/17	
BOCHG	I	2016/02/19	2016/02/19	1324002		4269932	US81180WAH43	2016/02/19	1000.00000	990.00000	CORR	2014/06/01	2016/02/19	
BOCHG	I	2016/02/19	2016/02/19	1324003		4429561	XS1113838475	2016/02/08	5.00000	6.39000	CORR	2015/01/30	2016/02/08	
BOCHG	I	2016/02/19	2016/02/19	1324004	1825730	3901634	XS0826174269	2016/02/19	8.59336		REDEM	2015/09/18	2016/02/19	
BOCHG	I	2016/02/19	2016/02/19	1324005	1825731	4218769	XS1015495937	2016/02/16	4.27413	3.57413	REDEM	2015/08/14	2016/02/16	
BOCHG	I	2016/02/19	2016/02/19	1324006		4084036	PEP01000C4P8	2016/02/18	966.34500	360.84400	CORR	2014/05/13	2016/02/18	
BOCHG	I	2016/02/19	2016/02/19	1324007		4662127	XS1273426103	2016/02/18	4.67500	4.47500	CORR	2015/12/09	2016/02/18	
BOCHG	I	2016/02/19	2016/02/19	1324008		4627319	XS1310200073	2016/02/18	4.00000	2.50000	CORR	2015/10/29	2016/02/18	
BOCHG	D	2011/08/01	2016/02/19	408701		269478	US263578AE67	2011/08/01	51.70900		REDEM	2010/04/09	2011/08/01	
BOCHG	D	2013/01/02	2016/02/19	668358		753202	IL0011060469	2012/12/31	437.50000	375.00000	CORR	2012/07/02	2012/12/31	
BOCHG	D	2013/05/09	2016/02/19	734890	1119633	1929512	US2515A03W11	2013/05/09	5.81100		REDEM	2010/05/11	2013/05/09	
BOCHG	D	2013/11/01	2016/02/19	822175	1236177	269328	US23330XAE04	2013/11/01	550.00000		REDEM	2005/06/22	2013/11/01	
BOCHG	D	2015/12/18	2016/02/19	1287023	1784069	4069289	XS0887366135	2015/12/18	246.28910	234.06746	REDEM	2015/10/19	2015/12/18	
BOCHG	D	2015/12/18	2016/02/19	1287024	1784070	4073486	XS0887366481	2015/12/18	1067.86118	1046.96565	REDEM	2015/10/19	2015/12/18	
BOCHG	I	2016/02/19	2016/02/19	1324009		4048613	US48668HAA23	2015/11/28	124.71181	121.63778	CORR	2015/08/25	2015/11/28	
BOCHG	I	2016/02/19	2016/02/19	1324010	1825747	2213655	PTTGUIOM0007	2016/02/18	2917.66349	2854.10902	REDEM	2015/11/18	2016/02/18	
BOCHG	I	2016/02/19	2016/02/19	1324011	1825748	2224086	PTGAMAOM0014	2016/02/19	230.74356	224.97595	REDEM	2015/11/19	2016/02/19	
BOCHG	I	2016/02/19	2016/02/19	1324012		1889299	XS0506224871	2016/02/18	13000.00000	17000.00000	CORR	2015/12/29	2016/02/18	
BOCHG	I	2016/02/19	2016/02/19	1324013		525308	XS0268536728	2012/12/31	10000.00000	8000.00000	CORR	2006/09/28	2012/12/31	
BOCHG	I	2016/02/19	2016/02/19	1324014	1825749	1892792	US00254EJG89	2010/06/29	11.70000		REDEM	2009/10/27	2010/06/29	
BOCHG	I	2016/02/19	2016/02/19	1324015		4707562	XS1369270274	2016/02/19	70.00000	40.00000	CORR	2016/02/18	2016/02/18	
BOCHG	I	2016/02/19	2016/02/19	1324016		4470490	XS1199929826	2016/02/18	1227.65000	1228.17800	CORR	2016/02/11	2016/02/11	
BOCHG	I	2016/02/19	2016/02/19	1324017		4702274	XS1362999721	2016/02/08	1.00000	1.00000	CORR	2016/02/18	2016/02/19	
BOCHG	I	2016/02/19	2016/02/19	1324018		4319041	ES0305034003	2016/02/18	2028.34519	2032.49765	CORR	2016/02/17	2016/02/18	
BOCHG	I	2016/02/19	2016/02/19	1324019		4072011	ES0325636001	2016/02/18	374.81756	375.11280	CORR	2016/02/17	2016/02/18	
BOCHG	I	2016/02/19	2016/02/19	1324020		4519666	XS1212546466	2015/06/04	1.15000	1.15000	CORR	2015/06/02	2016/02/18	
BOCHG	I	2016/02/19	2016/02/19	1324021		4702682	US3136G2YM39	2016/02/19	15.00000	170.00000	CORR	2016/02/26	2016/02/26	
BOCHG	I	2016/02/19	2016/02/19	1324022		4699029	XS1358937065	2016/02/17	0.10000	0.25000	REISS	2016/02/12	2016/02/17	
BOCHG	I	2016/02/19	2016/02/19	1324023		4694597	XS1289135722	2016/02/09	5.00000	1.00000	CORR	2016/02/08	2016/02/08	
BOCHG	I	2016/02/19	2016/02/19	1324024		1295035	IL0025902557	2007/11/29	1122.33721	473.00000	CORR	2014/01/13	2007/11/28	
BOCHG	I	2016/02/19	2016/02/19	1324025		1295035	IL0025902557	2015/07/19	473.00000	1022.92569	CORR	2007/11/28	2015/07/19	
BOCHG	I	2016/02/19	2016/02/19	1324026	1825757	3716700	XS0772551411	2016/02/16	5.59536	5.12235	REDEM	2015/12/23	2016/02/16	
BOCHG	I	2016/02/19	2016/02/19	1324027		4474756	XS1209676730	2016/02/18	16.00000	15.00000	CORR	2015/04/06	2016/02/18	
BOCHG	I	2016/02/19	2016/02/19	1324028		4705052	XS1261168881	2016/02/19	10.67000	12.87000	CORR	2016/02/18	2016/02/18	
BOCHG	I	2016/02/19	2016/02/19	1324029		4688995	XS1339601558	2016/02/18	1.44700	1.54700	REISS	2016/01/25	2016/02/18	
BOCHG	I	2016/02/19	2016/02/19	1324030		4613507	XS1265926474	2016/02/18	10.00000	15.00000	CORR	2015/10/07	2016/02/18	
BOCHG	I	2016/02/19	2016/02/19	1324031		4701431	XS1265943990	2016/02/18	1.00000	1.36000	CORR	2016/02/17	2016/02/18	
BOCHG	I	2016/02/19	2016/02/19	1324032		4683297	XS1280738847	2016/02/18	8.02000	6.77500	CORR	2016/01/15	2016/02/18	
BOCHG	I	2016/02/19	2016/02/19	1324033	1825765	4069289	XS0887366135	2015/11/18	246.28910	239.62136	REDEM	2015/10/19	2015/11/18	
BOCHG	I	2016/02/19	2016/02/19	1324034	1825768	4069289	XS0887366135	2015/12/18	239.62136	234.06746	REDEM	2015/11/18	2015/12/18	
BOCHG	I	2016/02/19	2016/02/19	1324035		4121561	USU7230PAA67	2016/02/17	375.00000	225.00000	CORR	2013/09/23	2016/02/17	
BOCHG	I	2016/02/19	2016/02/19	1324036	1825771	4069289	XS0887366135	2016/01/18	234.06746	226.06801	REDEM	2015/12/18	2016/01/18	
BOCHG	I	2016/02/19	2016/02/19	1324037		4115659	US72348WAA71	2016/02/17	375.00000	225.00000	CORR	2013/09/23	2016/02/17	
BOCHG	I	2016/02/19	2016/02/19	1324038	1825773	1540511	USG5220BAB74	2015/12/30	37.50000		REDEM	2007/05/15	2015/12/30	
BOCHG	I	2016/02/19	2016/02/19	1324039	1825774	4069289	XS0887366135	2016/02/18	226.06801	218.04590	REDEM	2016/01/18	2016/02/18	
BOCHG	I	2016/02/19	2016/02/19	1324040		4578237	XS1274557161	2016/02/18	850.00000	1025.00000	CORR	2016/02/02	2016/02/18	
BOCHG	I	2016/02/19	2016/02/19	1324041		4631260	XS1312891549	2016/02/18	1164.53200	1163.20100	CORR	2016/02/17	2016/02/18	
BOCHG	I	2016/02/19	2016/02/19	1324042		4679995	IE00BV8C9418	2016/02/17	3000.00000	4000.00000	CORR	2016/01/14	2016/02/17	
BOCHG	I	2016/02/19	2016/02/19	1324043		4635808	XS1312891895	2016/02/18	105.65400	115.65400	CORR	2016/02/15	2016/02/18	
BOCHG	I	2016/02/19	2016/02/19	1324044		4439346	IE00BV8C9186	2016/02/17	5219.50000	5259.50000	CORR	2016/02/10	2016/02/17	
BOCHG	I	2016/02/19	2016/02/19	1324046		4701591	XS1313811660	2016/02/18	5.00000	4.70000	CORR	2016/02/17	2016/02/17	
BOCHG	I	2016/02/19	2016/02/19	1324047		2859367	PAL3417828N1	2011/06/28	40.00000	2.50000	CORR	2011/06/27	2011/06/27	
BOCHG	I	2016/02/19	2016/02/19	1324048	1825779	4073486	XS0887366481	2015/11/18	1067.86118	1058.12288	REDEM	2015/10/19	2015/11/18	
BOCHG	I	2016/02/19	2016/02/19	1324049		2920011	PAL0756821D2	2011/07/15	50.00000	7.00000	CORR	2011/07/14	2011/07/14	
BOCHG	I	2016/02/19	2016/02/19	1324050		3040197	PAL3520621U9	2011/08/16	100.00000	5.00000	CORR	2011/08/15	2011/08/15	
BOCHG	I	2016/02/19	2016/02/19	1324051		3156023	PAL0756821E0	2011/09/13	50.00000	10.00000	CORR	2011/09/12	2011/09/12	
BOCHG	I	2016/02/19	2016/02/19	1324052		3243659	PAL3520621V7	2011/10/12	100.00000	3.50000	CORR	2011/10/11	2011/10/11	
BOCHG	I	2016/02/19	2016/02/19	1324053	1825780	4694864	XS1349978186	2016/02/01	1000.00000		REDEM	2016/01/22	2016/02/01	
BOCHG	I	2016/02/19	2016/02/19	1324054		3247032	PAL352078BA8	2011/03/01	50.00000	7.00000	CORR	2011/02/28	2011/02/28	
BOCHG	I	2016/02/19	2016/02/19	1324055		3262111	PAL3001211B7	2011/11/02	10.00000	2.00000	CORR	2011/11/01	2011/11/01	
BOCHG	I	2016/02/19	2016/02/19	1324056	1825781	4073486	XS0887366481	2015/12/18	1058.12288	1046.96565	REDEM	2015/11/18	2015/12/18	
BOCHG	I	2016/02/19	2016/02/19	1324057		3262119	PAL0756821F7	2011/10/29	50.00000	3.00000	CORR	2011/10/28	2011/10/28	
BOCHG	I	2016/02/19	2016/02/19	1324058		3329779	PAL1800721B2	2011/12/01	16.00000	4.50000	CORR	2011/11/30	2011/11/30	
BOCHG	I	2016/02/19	2016/02/19	1324059		3329782	PAL3520621W5	2011/12/01	100.00000	2.00000	CORR	2011/11/30	2011/11/30	
BOCHG	I	2016/02/19	2016/02/19	1324060		3421218	PAL0848222A9	2011/12/23	32.00000	10.50000	CORR	2011/12/22	2011/12/22	
BOCHG	I	2016/02/19	2016/02/19	1324061	1825783	4073486	XS0887366481	2016/01/18	1046.96565	1034.30551	REDEM	2015/12/18	2016/01/18	
BOCHG	I	2016/02/19	2016/02/19	1324062	1806118	973385	US201723AH68	2016/02/18	400.00000	300.00000	REDEM	2007/07/17	2016/02/18	
BOCHG	I	2016/02/19	2016/02/19	1324063		3421227	PAL3003812F1	2011/12/29	20.00000	8.00000	CORR	2011/12/28	2011/12/28	
BOCHG	I	2016/02/19	2016/02/19	1324065		3421228	PAL3003711G3	2011/12/23	20.00000	2.50000	CORR	2011/12/22	2011/12/22	
BOCHG	I	2016/02/19	2016/02/19	1324066	1825784	4073486	XS0887366481	2016/02/18	1034.30551	1024.16217	REDEM	2016/01/18	2016/02/18	
BOCHG	I	2016/02/19	2016/02/19	1324067		3421257	PAL3417828T8	2011/12/31	40.00000	1.65700	CORR	2011/12/30	2011/12/30	
BOCHG	I	2016/02/19	2016/02/19	1324064		4153967	AU3TB0000176	2016/02/24	17300.00000	18100.00000	REISS	2015/10/14	2016/02/24	
BOCHG	I	2016/02/19	2016/02/19	1324068		753202	IL0011060469	2007/06/27	437.50000	500.00000	CORR	2012/07/02	2007/06/26	
BOCHG	I	2016/02/19	2016/02/19	1324069		3421261	PAL0756821G5	2011/12/13	50.00000	3.50000	CORR	2011/12/12	2011/12/12	
BOCHG	I	2016/02/19	2016/02/19	1324070	1806116	1234825	US201723AJ25	2016/02/18	500.00000	399.81800	REDEM	2008/08/04	2016/02/18	
BOCHG	I	2016/02/19	2016/02/19	1324071		3421266	PAL3001011B1	2011/11/26	25.00000	4.00000	CORR	2011/11/25	2011/11/25	
BOCHG	I	2016/02/19	2016/02/19	1324073		3528492	PAL310741EM1	2012/01/16	30.00000	1.00000	CORR	2012/01/15	2012/01/15	
BOCHG	I	2016/02/19	2016/02/19	1324074		3528495	PAL312371HA3	2012/02/08	200.00000	50.00000	CORR	2012/02/07	2012/02/07	
BOCHG	I	2016/02/19	2016/02/19	1324075		3528499	PAL3001011C9	2012/01/17	25.00000	7.00000	CORR	2012/01/16	2012/01/16	
BOCHG	I	2016/02/19	2016/02/19	1324076		753202	IL0011060469	2012/07/02	500.00000	437.50000	CORR	2007/06/26	2012/07/02	
BOCHG	I	2016/02/19	2016/02/19	1324077	1825785	4183112	XS0988484878	2015/11/18	222.24271	216.69821	REDEM	2015/10/19	2015/11/18	
BOCHG	I	2016/02/19	2016/02/19	1324078		753202	IL0011060469	2012/12/31	437.50000	375.00000	CORR	2012/07/02	2012/12/31	
BOCHG	I	2016/02/19	2016/02/19	1324079		3603147	PAL3003712G1	2012/12/18	20.00000	2.50000	CORR	2012/02/17	2012/02/17	
BOCHG	I	2016/02/19	2016/02/19	1324080		4702606	XS1314949394	2016/02/19	1.00000	1.00000	CORR	2016/02/18	2016/02/19	
BOCHG	I	2016/02/19	2016/02/19	1324081		3603158	PAL312371HB1	2012/02/28	200.00000	20.00000	CORR	2012/02/27	2012/02/27	
BOCHG	I	2016/02/19	2016/02/19	1324082		3618799	PAL3003711H1	2012/02/18	20.00000	1.50000	CORR	2012/02/17	2012/02/17	
BOCHG	I	2016/02/19	2016/02/19	1324083		3705471	PAL3417828V4	2012/03/30	40.00000	1.76100	CORR	2012/03/29	2012/03/29	
BOCHG	I	2016/02/19	2016/02/19	1324084		3705473	PAL3003813A0	2012/03/16	50.00000	12.00000	CORR	2012/03/15	2012/03/15	
BOCHG	I	2016/02/19	2016/02/19	1324085	1825786	4183112	XS0988484878	2015/12/18	216.69821	210.85791	REDEM	2015/11/18	2015/12/18	
BOCHG	I	2016/02/19	2016/02/19	1324086		3705474	PAL3109911F4	2012/03/24	12.00000	1.00000	CORR	2012/03/23	2012/03/23	
BOCHG	I	2016/02/19	2016/02/19	1324087	1825787	4153038	AU3CB0216950	2016/02/19	12.60000	12.03000	REDEM	2016/02/05	2016/02/19	
BOCHG	I	2016/02/19	2016/02/19	1324088		3929186	NO0010662737	2016/02/17	2000.00000	2300.00000	CORR	2014/11/21	2016/02/17	
BOCHG	I	2016/02/19	2016/02/19	1324090		3929186	NO0010662737	2016/02/18	2300.00000	2700.00000	REISS	2016/02/17	2016/02/18	As on 18/02/2016<BR><BR>Gjensidige Bank Boligkreditt AS has today increased the issue size of  GJBB10PRO/ISIN NO0010662737  by NOK 400 million <BR>
BOCHG	I	2016/02/19	2016/02/19	1324091		4050347	NO0010680283	2016/02/17	2150.00000	2650.00000	CORR	2016/01/26	2016/02/17	
BOCHG	I	2016/02/19	2016/02/19	1324092		4050347	NO0010680283	2016/02/18	2650.00000	2850.00000	REISS	2016/02/17	2016/02/18	As on 18/02/2016<BR><BR>Gjensidige Bank Boligkreditt AS has today increased the issue size of GJBB12PRO/ISIN NO0010680283 by NOK 200 million<BR>
BOCHG	I	2016/02/19	2016/02/19	1324093		753200	IL0011055436	2007/05/31	821.93360	913.25956	CORR	2013/04/02	2007/05/30	
BOCHG	I	2016/02/19	2016/02/19	1324094	1825789	4183112	XS0988484878	2016/01/18	210.85791	205.52565	REDEM	2015/12/18	2016/01/18	
BOCHG	I	2016/02/19	2016/02/19	1324095		753200	IL0011055436	2013/04/02	913.25956	821.93360	CORR	2007/05/30	2013/04/02	
BOCHG	I	2016/02/19	2016/02/19	1324096		753200	IL0011055436	2013/09/29	821.93360	730.60764	CORR	2013/04/02	2013/09/29	
BOCHG	I	2016/02/19	2016/02/19	1324097		753200	IL0011055436	2014/03/30	730.60764	639.28169	CORR	2013/09/29	2014/03/30	
BOCHG	I	2016/02/19	2016/02/19	1324098		753200	IL0011055436	2014/09/29	639.28169	547.95573	CORR	2014/03/30	2014/09/29	
BOCHG	I	2016/02/19	2016/02/19	1324099		4700523	INE918K07EO4	2016/02/03	10.00000	5.00000	CORR	2016/02/02	2016/02/02	
BOCHG	I	2016/02/19	2016/02/19	1324100		4660771	NO0010753411	2016/02/18	925.00000	1000.00000	REISS	2016/02/01	2016/02/18	As on 18/02/2016<BR><BR>Sparebanken Sogn og Fjordane has increased ISIN NO0010753411` with 75 million NOK
EDI_ENDOFFILE
