EDI_ISCHG_20160219
TableName	Actflag	Created	Changed	IschgID	SecID	ISIN	IssID	NameChangeDate	IssOldName	IssNewName	EventType	LegalName	MeetingDateFlag	Notes
ISCHG	I	2016/02/19	2016/02/19	47882	3796761	TH007303N501	704	2016/02/19	Singer Thailand	Singer Thailand Public Company Limited	CORR	F	F	
ISCHG	I	2016/02/19	2016/02/19	47882	3796767	TH007303O509	704	2016/02/19	Singer Thailand	Singer Thailand Public Company Limited	CORR	F	F	
ISCHG	I	2016/02/19	2016/02/19	47882	3796769	TH007303P506	704	2016/02/19	Singer Thailand	Singer Thailand Public Company Limited	CORR	F	F	
ISCHG	I	2016/02/19	2016/02/19	47882	3796780	TH007303Q504	704	2016/02/19	Singer Thailand	Singer Thailand Public Company Limited	CORR	F	F	
ISCHG	I	2016/02/19	2016/02/19	47882	4512125	TH007303R700	704	2016/02/19	Singer Thailand	Singer Thailand Public Company Limited	CORR	F	F	
ISCHG	I	2016/02/19	2016/02/19	47883	2290443	KR60364910C0	28825	2016/02/17	SK Materials Co. Ltd	OCI Materials Co Ltd	CORR	F	F	[As on 19.02.2016] KR_CLQA [19495]<BR>- The company approved on the name change in EGM on 2016-02-16.<BR>- The correct effective date will be announced later, and the date, 2016-02-16 is the approval date, not effective(listing) date.<BR><BR>
ISCHG	I	2016/02/19	2016/02/19	47883	3907629	KR6036491290	28825	2016/02/17	SK Materials Co. Ltd	OCI Materials Co Ltd	CORR	F	F	[As on 19.02.2016] KR_CLQA [19495]<BR>- The company approved on the name change in EGM on 2016-02-16.<BR>- The correct effective date will be announced later, and the date, 2016-02-16 is the approval date, not effective(listing) date.<BR><BR>
ISCHG	U	2016/01/27	2016/02/19	47705	777279	CA25435LAC96	42133		Nuvo Research, Inc.	Nuvo Pharmaceuticals Inc	ISCHG	F	F	(As on 18/02/16) CADJ<BR>Nuvo Research(R) Shareholders Approve Proposed Reorganization into Two Separate Public Companies<BR>Nuvo Research Inc. (TSX:NRI) (`Nuvo` or the `Company`), a life sciences company with growing revenues and a diverse portfolio of topical products, is pleased to announce that the proposed reorganization of Nuvo into two separate publicly traded companies, Nuvo Pharmaceuticals Inc. (Nuvo Pharma), a revenue and EBITDA generating commercial healthcare company, and Crescita Therapeutics Inc. (Crescita), a drug development company, was approved by Nuvo`s shareholders shares at today`s special meeting. The exact number of votes cast for and against each of the resolutions approved at the meeting will be available under Nuvo`s profile at www.sedar.com. <BR><BR>Under the proposed reorganization, Nuvo would be separated into two public companies. One company, Nuvo Pharmaceuticals Inc. (Nuvo Pharma), would be a revenue and EBITDA generating commercial healthcare company to be owned 100% by Nuvo shareholders. The second company, Crescita Therapeutics Inc. (Crescita), would be a drug development company also initially owned 100% by Nuvo shareholders. Crescita would have a diversified pipeline of product candidates and sufficient cash resources to execute its current business plan for the next 24 months. <BR><BR>Complete details of the proposed reorganization and each company are set forth in the information circular that was mailed to Nuvo`s shareholders in connection with the special meeting, a copy of which is available under Nuvo`s profile at www.sedar.com. Completion of the proposed reorganization remains subject to certain conditions, including final approval of the Ontario Superior Court of Justice (Commercial List). In addition, Nuvo`s board of directors retains the discretion to determine whether or not to proceed with the proposed reorganization and, if so, the timing of the proposed reorganization. If the remaining conditions are satisfied and the proposed reorganization proceeds, Nuvo expects the proposed reorganization to become effective on or about March 1, 2016. <BR><BR>(As on 17/02/16) CACNW<BR>Nuvo Research  Announces 2015 Fourth Quarter & Year-End Results<BR>Nuvo Research Inc. (TSX:NRI), a life sciences company with growing revenues and a diverse portfolio of topical products, today announced its financial and operational results for the fourth quarter and year endedDecember 31, 2015.<BR>The Company will hold a special meeting of shareholders on February 18, 2016 at which shareholders will be asked to approve the previously announced reorganization of Nuvo into two separate publicly traded companies. If approved, one company, Nuvo Pharmaceuticals Inc. (Nuvo Pharma) would be a revenue and EBITDA generating commercial healthcare company to be owned 100% by Nuvo shareholders. The second company, Crescita Therapeutics Inc. (Crescita) would be a drug development company also initially owned 100% by Nuvo shareholders. Completion of the reorganization is subject to a number of conditions including shareholder and court approval. If the proposed transaction is approved by shareholders and all other conditions are satisfied, Nuvo expects the transaction to be completed in Q1 2016.<BR><BR>(As on 26/01/2016) CACNW<BR>Nuvo Research  Announces TSX Conditional Approval to List Crescita Therapeutics Inc.<BR>MISSISSAUGA, ON, Nov. 23, 2015 /PRNewswire/ - Nuvo Research Inc. (TSX:NRI) (`Nuvo` or the `Company`), a specialty pharmaceutical company with growing revenues and a diverse portfolio of topical and immunology products, today announced that the Toronto Stock Exchange (`TSX`) has conditionally approved the listing of Crescita Therapeutics Inc. (`Crescita`).  Crescita would be a newly formed company that would own and operate Nuvo`s existing drug development business if the previously announced transaction to separate Nuvo into two public companies is completed.  Nuvo, which would be renamed Nuvo Pharmaceuticals Inc. (`Nuvo Pharma`), would own and operate the remaining business that would include all assets related to its Pennsaid and Pennsaid 2% franchises. Nuvo Pharma would continue to be listed on the TSX under the existing symbol `NRI`. <BR>
ISCHG	U	2016/01/27	2016/02/19	47705	1236729	CA25435LAB14	42133		Nuvo Research, Inc.	Nuvo Pharmaceuticals Inc	ISCHG	F	F	(As on 18/02/16) CADJ<BR>Nuvo Research(R) Shareholders Approve Proposed Reorganization into Two Separate Public Companies<BR>Nuvo Research Inc. (TSX:NRI) (`Nuvo` or the `Company`), a life sciences company with growing revenues and a diverse portfolio of topical products, is pleased to announce that the proposed reorganization of Nuvo into two separate publicly traded companies, Nuvo Pharmaceuticals Inc. (Nuvo Pharma), a revenue and EBITDA generating commercial healthcare company, and Crescita Therapeutics Inc. (Crescita), a drug development company, was approved by Nuvo`s shareholders shares at today`s special meeting. The exact number of votes cast for and against each of the resolutions approved at the meeting will be available under Nuvo`s profile at www.sedar.com. <BR><BR>Under the proposed reorganization, Nuvo would be separated into two public companies. One company, Nuvo Pharmaceuticals Inc. (Nuvo Pharma), would be a revenue and EBITDA generating commercial healthcare company to be owned 100% by Nuvo shareholders. The second company, Crescita Therapeutics Inc. (Crescita), would be a drug development company also initially owned 100% by Nuvo shareholders. Crescita would have a diversified pipeline of product candidates and sufficient cash resources to execute its current business plan for the next 24 months. <BR><BR>Complete details of the proposed reorganization and each company are set forth in the information circular that was mailed to Nuvo`s shareholders in connection with the special meeting, a copy of which is available under Nuvo`s profile at www.sedar.com. Completion of the proposed reorganization remains subject to certain conditions, including final approval of the Ontario Superior Court of Justice (Commercial List). In addition, Nuvo`s board of directors retains the discretion to determine whether or not to proceed with the proposed reorganization and, if so, the timing of the proposed reorganization. If the remaining conditions are satisfied and the proposed reorganization proceeds, Nuvo expects the proposed reorganization to become effective on or about March 1, 2016. <BR><BR>(As on 17/02/16) CACNW<BR>Nuvo Research  Announces 2015 Fourth Quarter & Year-End Results<BR>Nuvo Research Inc. (TSX:NRI), a life sciences company with growing revenues and a diverse portfolio of topical products, today announced its financial and operational results for the fourth quarter and year endedDecember 31, 2015.<BR>The Company will hold a special meeting of shareholders on February 18, 2016 at which shareholders will be asked to approve the previously announced reorganization of Nuvo into two separate publicly traded companies. If approved, one company, Nuvo Pharmaceuticals Inc. (Nuvo Pharma) would be a revenue and EBITDA generating commercial healthcare company to be owned 100% by Nuvo shareholders. The second company, Crescita Therapeutics Inc. (Crescita) would be a drug development company also initially owned 100% by Nuvo shareholders. Completion of the reorganization is subject to a number of conditions including shareholder and court approval. If the proposed transaction is approved by shareholders and all other conditions are satisfied, Nuvo expects the transaction to be completed in Q1 2016.<BR><BR>(As on 26/01/2016) CACNW<BR>Nuvo Research  Announces TSX Conditional Approval to List Crescita Therapeutics Inc.<BR>MISSISSAUGA, ON, Nov. 23, 2015 /PRNewswire/ - Nuvo Research Inc. (TSX:NRI) (`Nuvo` or the `Company`), a specialty pharmaceutical company with growing revenues and a diverse portfolio of topical and immunology products, today announced that the Toronto Stock Exchange (`TSX`) has conditionally approved the listing of Crescita Therapeutics Inc. (`Crescita`).  Crescita would be a newly formed company that would own and operate Nuvo`s existing drug development business if the previously announced transaction to separate Nuvo into two public companies is completed.  Nuvo, which would be renamed Nuvo Pharmaceuticals Inc. (`Nuvo Pharma`), would own and operate the remaining business that would include all assets related to its Pennsaid and Pennsaid 2% franchises. Nuvo Pharma would continue to be listed on the TSX under the existing symbol `NRI`. <BR>
ISCHG	U	2016/01/27	2016/02/19	47705	3444991		42133		Nuvo Research, Inc.	Nuvo Pharmaceuticals Inc	ISCHG	F	F	(As on 18/02/16) CADJ<BR>Nuvo Research(R) Shareholders Approve Proposed Reorganization into Two Separate Public Companies<BR>Nuvo Research Inc. (TSX:NRI) (`Nuvo` or the `Company`), a life sciences company with growing revenues and a diverse portfolio of topical products, is pleased to announce that the proposed reorganization of Nuvo into two separate publicly traded companies, Nuvo Pharmaceuticals Inc. (Nuvo Pharma), a revenue and EBITDA generating commercial healthcare company, and Crescita Therapeutics Inc. (Crescita), a drug development company, was approved by Nuvo`s shareholders shares at today`s special meeting. The exact number of votes cast for and against each of the resolutions approved at the meeting will be available under Nuvo`s profile at www.sedar.com. <BR><BR>Under the proposed reorganization, Nuvo would be separated into two public companies. One company, Nuvo Pharmaceuticals Inc. (Nuvo Pharma), would be a revenue and EBITDA generating commercial healthcare company to be owned 100% by Nuvo shareholders. The second company, Crescita Therapeutics Inc. (Crescita), would be a drug development company also initially owned 100% by Nuvo shareholders. Crescita would have a diversified pipeline of product candidates and sufficient cash resources to execute its current business plan for the next 24 months. <BR><BR>Complete details of the proposed reorganization and each company are set forth in the information circular that was mailed to Nuvo`s shareholders in connection with the special meeting, a copy of which is available under Nuvo`s profile at www.sedar.com. Completion of the proposed reorganization remains subject to certain conditions, including final approval of the Ontario Superior Court of Justice (Commercial List). In addition, Nuvo`s board of directors retains the discretion to determine whether or not to proceed with the proposed reorganization and, if so, the timing of the proposed reorganization. If the remaining conditions are satisfied and the proposed reorganization proceeds, Nuvo expects the proposed reorganization to become effective on or about March 1, 2016. <BR><BR>(As on 17/02/16) CACNW<BR>Nuvo Research  Announces 2015 Fourth Quarter & Year-End Results<BR>Nuvo Research Inc. (TSX:NRI), a life sciences company with growing revenues and a diverse portfolio of topical products, today announced its financial and operational results for the fourth quarter and year endedDecember 31, 2015.<BR>The Company will hold a special meeting of shareholders on February 18, 2016 at which shareholders will be asked to approve the previously announced reorganization of Nuvo into two separate publicly traded companies. If approved, one company, Nuvo Pharmaceuticals Inc. (Nuvo Pharma) would be a revenue and EBITDA generating commercial healthcare company to be owned 100% by Nuvo shareholders. The second company, Crescita Therapeutics Inc. (Crescita) would be a drug development company also initially owned 100% by Nuvo shareholders. Completion of the reorganization is subject to a number of conditions including shareholder and court approval. If the proposed transaction is approved by shareholders and all other conditions are satisfied, Nuvo expects the transaction to be completed in Q1 2016.<BR><BR>(As on 26/01/2016) CACNW<BR>Nuvo Research  Announces TSX Conditional Approval to List Crescita Therapeutics Inc.<BR>MISSISSAUGA, ON, Nov. 23, 2015 /PRNewswire/ - Nuvo Research Inc. (TSX:NRI) (`Nuvo` or the `Company`), a specialty pharmaceutical company with growing revenues and a diverse portfolio of topical and immunology products, today announced that the Toronto Stock Exchange (`TSX`) has conditionally approved the listing of Crescita Therapeutics Inc. (`Crescita`).  Crescita would be a newly formed company that would own and operate Nuvo`s existing drug development business if the previously announced transaction to separate Nuvo into two public companies is completed.  Nuvo, which would be renamed Nuvo Pharmaceuticals Inc. (`Nuvo Pharma`), would own and operate the remaining business that would include all assets related to its Pennsaid and Pennsaid 2% franchises. Nuvo Pharma would continue to be listed on the TSX under the existing symbol `NRI`. <BR>
ISCHG	U	2015/12/23	2016/02/19	47495	4345930		139434	2016/02/05	Infinity Chemical Holdings Company Limited	Infinity Development Holdings Company Limited	ISCHG	F	F	(As on 17/02/2016)  HKSEHK_473<BR>Reference is made to the announcements of the Company dated 25 November 2015 and 23 December 2015 and the circular of the Company dated 27 November 2015 (the Circular) in relation to the Change of Company Name. Unless otherwise defined herein, capitalised terms used in this announcement shall have the same meanings as those defined in the Circular.<BR><BR>CHANGE OF COMPANY NAMES<BR>The Board is pleased to announce that the English name of the Company has been changed from eInfinity Chemical Holdings Company Limited to eInfinity Development Holdings Company Limited and the dual foreign name of the Company has been changed from to The Certificate of Incorporation on Change of Name of the Company was issued by the Registry of Companies in the Cayman Islands on 11 January 2016 and the Certificate of Registration of Alteration of Name of Registered Non-Hong Kong Company was issued by the Registrar of Companies in Hong Kong on 5 February 2016.<BR><BR>EFFECTS ON THE CHANGE OF COMPANY NAME<BR>The Change of Company Name will not affect any rights of the Shareholders. All existing share certificates in issue bearing the former name of the Company shall continue to be effective of title to such shares and the existing share certificates shall continue to be valid<BR>for trading, settlement, registration and delivery purposes. Accordingly, there will not be any arrangement for free exchange of the existing share certificates for new share certificates bearing the new English and dual foreign names of the Company. New share certificates of<BR>the Company will be issued under the new English and dual foreign names with effect from 24 February 2016.<BR><BR>CHANGE OF COMPANY WEBSITE<BR>The website of the Company will be changed from   www.infinitychemical.com to www.infinitydevelopment.com.hk   with effect from 22 February 2016 to reflect the change of names of the Company.<BR><BR>(As on 23/12/2015)  HKSEHK_791<BR>POLL RESULTS FOR THE EXTRAORDINARY GENERAL MEETING HELD ON 23 DECEMBER 2015<BR>SPECIAL RESOLUTION<BR>To approve the change of the English name of the Company from eInfinity Chemical Holdings Company Limited to eInfinity Development Holdings Company Limited f f, and the Chinese name  be adopted as the dual foreign name of the Company in place of its existing Chinese name <BR><BR>(As on 25/11/2015)  HKSEHK_558<BR>PROPOSED CHANGE OF COMPANY NAME<BR>The board (the Board) of directors of Infinity Chemical Holdings Company Limited (the Company, which together with its subsidiaries, the Group proposed to change the English name of the Company from  e eInfinity Chemical Holdings Company Limited to Infinity Development Holdings Company Limited f f, and adopt the Chinese name of as the dual foreign name of the Company in place of its existing<BR>Chinese name (the Change of Company Name).<BR><BR>CONDITIONS FOR THE CHANGE OF COMPANY NAME<BR>The Change of Company Name is subject to the following conditions having been satisfied:<BR>(i) the passing of a special resolution by the shareholders of the Company (the   Shareholders  ) at its extraordinary general meeting (  EGM  ) to approve the Change of Company Name; and (ii) the Registrar of Companies in the Cayman Islands approving the Change of Company Name.<BR><BR>Subject to the satisfaction of the conditions set out above, the Change of Company Name will take effect from the date on which the Registrar of Companies in the Cayman Islands enters the new English name and dual foreign name in Chinese of the Company on the<BR>register of companies maintained by the Registrar of Companies in the Cayman Islands. The Company will further carry out the necessary filing procedures with the Companies Registry in Hong Kong.<BR><BR>In addition, subject to the confirmation of The Stock Exchange of Hong Kong Limited (the   Stock Exchange  ), the stock short name for trading in the shares of the Company will also be changed after the Change of Company Name becoming effective.<BR><BR>REASONS FOR THE CHANGE OF COMPANY NAME<BR>The Group is principally engaged in the manufacturing and sales of adhesives, primers, hardeners, vulcanized shoes adhesive related products used by the footwear manufacturers and acting as the sales agent for adhesives used in the production of electronic products.<BR>With further development and expansion of the business scope of the Group, the Board considers that the Change of Company Name will reflect the future strategy of the Group. In addition, the new name can also refresh the Company s corporate image and identity. The Board is of the opinion that the Change of Company Name will clearly benefit the Company s future business development and is in the interests of the Company and the Shareholders as a whole.<BR><BR>EFFECT OF THE CHANGE OF COMPANY NAME<BR>The Change of Company Name will not, of itself, affect any rights of the Shareholders or the Company s daily business operation and its financial position. All existing share certificates of the Company in issue bearing the existing name of the Company will, after the Change of Company Name becoming effective, continue to be effective and as documents of title to the shares of the Company and will remain valid for trading, settlement, registration and delivery purposes. Accordingly, there will not be any arrangement for free exchange of the existing share certificates for new share certificates bearing the new name of the Company. Upon the Change of Company Name becoming<BR>effective, new share certificates of the Company will be issued under the new name of the Company.<BR><BR>GENERAL<BR>The EGM will be convened and a special resolution will be proposed for the Shareholders to consider and, if thought fit, approve the Change of Company Name. A circular containing, among other matters, details of the proposed Change of Company Name, together with a<BR>notice of EGM and the related proxy form, will be despatched to the Shareholders as soon as practicable.<BR><BR>As no Shareholders have a material interest in the Change of Company Name, no Shareholders will be required to abstain from voting on the resolution to approve the Change of Company Name. Further announcement(s) will be made by the Company in relation to the results of the EGM, the effective date of the Change of Company Name and the new stock short name for trading in the shares of the Company as and when appropriate.<BR><BR>
EDI_ENDOFFILE
